%YAML 1.1
%TAG !u! tag:unity3d.com,2011:
--- !u!29 &1
OcclusionCullingSettings:
  m_ObjectHideFlags: 0
  serializedVersion: 2
  m_OcclusionBakeSettings:
    smallestOccluder: 5
    smallestHole: 0.25
    backfaceThreshold: 100
  m_SceneGUID: 00000000000000000000000000000000
  m_OcclusionCullingData: {fileID: 0}
--- !u!104 &2
RenderSettings:
  m_ObjectHideFlags: 0
  serializedVersion: 9
  m_Fog: 0
  m_FogColor: {r: 0.5, g: 0.5, b: 0.5, a: 1}
  m_FogMode: 3
  m_FogDensity: 0.01
  m_LinearFogStart: 0
  m_LinearFogEnd: 300
  m_AmbientSkyColor: {r: 0.212, g: 0.227, b: 0.259, a: 1}
  m_AmbientEquatorColor: {r: 0.114, g: 0.125, b: 0.133, a: 1}
  m_AmbientGroundColor: {r: 0.047, g: 0.043, b: 0.035, a: 1}
  m_AmbientIntensity: 1
  m_AmbientMode: 3
  m_SubtractiveShadowColor: {r: 0.42, g: 0.478, b: 0.627, a: 1}
  m_SkyboxMaterial: {fileID: 10304, guid: 0000000000000000f000000000000000, type: 0}
  m_HaloStrength: 0.5
  m_FlareStrength: 1
  m_FlareFadeSpeed: 3
  m_HaloTexture: {fileID: 0}
  m_SpotCookie: {fileID: 10001, guid: 0000000000000000e000000000000000, type: 0}
  m_DefaultReflectionMode: 0
  m_DefaultReflectionResolution: 128
  m_ReflectionBounces: 1
  m_ReflectionIntensity: 1
  m_CustomReflection: {fileID: 0}
  m_Sun: {fileID: 0}
  m_IndirectSpecularColor: {r: 0, g: 0, b: 0, a: 1}
  m_UseRadianceAmbientProbe: 0
--- !u!157 &3
LightmapSettings:
  m_ObjectHideFlags: 0
  serializedVersion: 11
  m_GIWorkflowMode: 1
  m_GISettings:
    serializedVersion: 2
    m_BounceScale: 1
    m_IndirectOutputScale: 1
    m_AlbedoBoost: 1
    m_TemporalCoherenceThreshold: 1
    m_EnvironmentLightingMode: 0
    m_EnableBakedLightmaps: 0
    m_EnableRealtimeLightmaps: 0
  m_LightmapEditorSettings:
    serializedVersion: 10
    m_Resolution: 2
    m_BakeResolution: 40
    m_AtlasSize: 1024
    m_AO: 0
    m_AOMaxDistance: 1
    m_CompAOExponent: 1
    m_CompAOExponentDirect: 0
    m_Padding: 2
    m_LightmapParameters: {fileID: 0}
    m_LightmapsBakeMode: 1
    m_TextureCompression: 1
    m_FinalGather: 0
    m_FinalGatherFiltering: 1
    m_FinalGatherRayCount: 256
    m_ReflectionCompression: 2
    m_MixedBakeMode: 1
    m_BakeBackend: 0
    m_PVRSampling: 1
    m_PVRDirectSampleCount: 32
    m_PVRSampleCount: 500
    m_PVRBounces: 2
    m_PVRFilterTypeDirect: 0
    m_PVRFilterTypeIndirect: 0
    m_PVRFilterTypeAO: 0
    m_PVRFilteringMode: 0
    m_PVRCulling: 1
    m_PVRFilteringGaussRadiusDirect: 1
    m_PVRFilteringGaussRadiusIndirect: 5
    m_PVRFilteringGaussRadiusAO: 2
    m_PVRFilteringAtrousPositionSigmaDirect: 0.5
    m_PVRFilteringAtrousPositionSigmaIndirect: 2
    m_PVRFilteringAtrousPositionSigmaAO: 1
    m_ShowResolutionOverlay: 1
  m_LightingDataAsset: {fileID: 0}
  m_UseShadowmask: 0
--- !u!196 &4
NavMeshSettings:
  serializedVersion: 2
  m_ObjectHideFlags: 0
  m_BuildSettings:
    serializedVersion: 2
    agentTypeID: 0
    agentRadius: 0.5
    agentHeight: 2
    agentSlope: 45
    agentClimb: 0.4
    ledgeDropHeight: 0
    maxJumpAcrossDistance: 0
    minRegionArea: 2
    manualCellSize: 0
    cellSize: 0.16666667
    manualTileSize: 0
    tileSize: 256
    accuratePlacement: 0
    debug:
      m_Flags: 0
  m_NavMeshData: {fileID: 0}
--- !u!1 &22507998
GameObject:
  m_ObjectHideFlags: 0
  m_CorrespondingSourceObject: {fileID: 0}
  m_PrefabInternal: {fileID: 0}
  serializedVersion: 6
  m_Component:
  - component: {fileID: 22508000}
  - component: {fileID: 22507999}
  m_Layer: 0
  m_Name: Directional light
  m_TagString: Untagged
  m_Icon: {fileID: 0}
  m_NavMeshLayer: 0
  m_StaticEditorFlags: 0
  m_IsActive: 1
--- !u!108 &22507999
Light:
  m_ObjectHideFlags: 0
  m_CorrespondingSourceObject: {fileID: 0}
  m_PrefabInternal: {fileID: 0}
  m_GameObject: {fileID: 22507998}
  m_Enabled: 1
  serializedVersion: 8
  m_Type: 1
  m_Color: {r: 1, g: 1, b: 1, a: 1}
  m_Intensity: 1
  m_Range: 10
  m_SpotAngle: 30
  m_CookieSize: 10
  m_Shadows:
    m_Type: 0
    m_Resolution: -1
    m_CustomResolution: -1
    m_Strength: 1
    m_Bias: 0.05
    m_NormalBias: 0.4
    m_NearPlane: 0.2
  m_Cookie: {fileID: 0}
  m_DrawHalo: 0
  m_Flare: {fileID: 0}
  m_RenderMode: 0
  m_CullingMask:
    serializedVersion: 2
    m_Bits: 4294967295
  m_Lightmapping: 4
  m_LightShadowCasterMode: 0
  m_AreaSize: {x: 1, y: 1}
  m_BounceIntensity: 1
  m_ColorTemperature: 6570
  m_UseColorTemperature: 0
  m_ShadowRadius: 0
  m_ShadowAngle: 0
--- !u!4 &22508000
Transform:
  m_ObjectHideFlags: 0
  m_CorrespondingSourceObject: {fileID: 0}
  m_PrefabInternal: {fileID: 0}
  m_GameObject: {fileID: 22507998}
  m_LocalRotation: {x: 0.8227051, y: -0.13561752, z: 0.22044313, w: 0.50613153}
  m_LocalPosition: {x: -0.74399996, y: 30.08, z: 0}
  m_LocalScale: {x: 1, y: 1, z: 1}
  m_Children: []
  m_Father: {fileID: 0}
  m_RootOrder: 1
  m_LocalEulerAnglesHint: {x: 116.8, y: -30, z: 0}
--- !u!1 &142152949
GameObject:
  m_ObjectHideFlags: 0
  m_CorrespondingSourceObject: {fileID: 0}
  m_PrefabInternal: {fileID: 0}
  serializedVersion: 6
  m_Component:
  - component: {fileID: 142152953}
  - component: {fileID: 142152952}
  - component: {fileID: 142152951}
  - component: {fileID: 142152950}
  m_Layer: 8
  m_Name: Plane
  m_TagString: Untagged
  m_Icon: {fileID: 0}
  m_NavMeshLayer: 0
  m_StaticEditorFlags: 0
  m_IsActive: 1
--- !u!23 &142152950
MeshRenderer:
  m_ObjectHideFlags: 0
  m_CorrespondingSourceObject: {fileID: 0}
  m_PrefabInternal: {fileID: 0}
  m_GameObject: {fileID: 142152949}
  m_Enabled: 1
  m_CastShadows: 1
  m_ReceiveShadows: 1
  m_DynamicOccludee: 1
  m_MotionVectors: 1
  m_LightProbeUsage: 1
  m_ReflectionProbeUsage: 1
  m_RenderingLayerMask: 4294967295
  m_Materials:
  - {fileID: 2100000, guid: 981c5dcf6c91a456cbc51e7930abc921, type: 2}
  m_StaticBatchInfo:
    firstSubMesh: 0
    subMeshCount: 0
  m_StaticBatchRoot: {fileID: 0}
  m_ProbeAnchor: {fileID: 0}
  m_LightProbeVolumeOverride: {fileID: 0}
  m_ScaleInLightmap: 1
  m_PreserveUVs: 1
  m_IgnoreNormalsForChartDetection: 0
  m_ImportantGI: 0
  m_StitchLightmapSeams: 0
  m_SelectedEditorRenderState: 3
  m_MinimumChartSize: 4
  m_AutoUVMaxDistance: 0.5
  m_AutoUVMaxAngle: 89
  m_LightmapParameters: {fileID: 0}
  m_SortingLayerID: 0
  m_SortingLayer: 0
  m_SortingOrder: 0
--- !u!64 &142152951
MeshCollider:
  m_ObjectHideFlags: 0
  m_CorrespondingSourceObject: {fileID: 0}
  m_PrefabInternal: {fileID: 0}
  m_GameObject: {fileID: 142152949}
  m_Material: {fileID: 0}
  m_IsTrigger: 0
  m_Enabled: 1
  serializedVersion: 3
  m_Convex: 0
  m_CookingOptions: 14
  m_SkinWidth: 0.01
  m_Mesh: {fileID: 10209, guid: 0000000000000000e000000000000000, type: 0}
--- !u!33 &142152952
MeshFilter:
  m_ObjectHideFlags: 0
  m_CorrespondingSourceObject: {fileID: 0}
  m_PrefabInternal: {fileID: 0}
  m_GameObject: {fileID: 142152949}
  m_Mesh: {fileID: 10209, guid: 0000000000000000e000000000000000, type: 0}
--- !u!4 &142152953
Transform:
  m_ObjectHideFlags: 0
  m_CorrespondingSourceObject: {fileID: 0}
  m_PrefabInternal: {fileID: 0}
  m_GameObject: {fileID: 142152949}
  m_LocalRotation: {x: 0, y: 0, z: 0, w: 1}
  m_LocalPosition: {x: -0.74399996, y: 8, z: 0}
  m_LocalScale: {x: 10, y: 10, z: 10}
  m_Children: []
  m_Father: {fileID: 0}
  m_RootOrder: 0
  m_LocalEulerAnglesHint: {x: 0, y: 0, z: 0}
--- !u!84 &181038931
RenderTexture:
  m_ObjectHideFlags: 0
  m_CorrespondingSourceObject: {fileID: 0}
  m_PrefabInternal: {fileID: 0}
  m_Name: 
  m_ImageContentsHash:
    serializedVersion: 2
    Hash: 00000000000000000000000000000000
  m_ForcedFallbackFormat: 4
  m_DownscaleFallback: 0
  m_Width: 286
  m_Height: 180
  m_AntiAliasing: 1
  m_DepthFormat: 2
  m_ColorFormat: 0
  m_MipMap: 0
  m_GenerateMips: 1
  m_SRGB: 0
  m_UseDynamicScale: 0
  m_BindMS: 0
  m_TextureSettings:
    serializedVersion: 2
    m_FilterMode: 1
    m_Aniso: 0
    m_MipBias: 0
    m_WrapU: 1
    m_WrapV: 1
    m_WrapW: 1
  m_Dimension: 2
  m_VolumeDepth: 1
--- !u!1 &398676033
GameObject:
  m_ObjectHideFlags: 0
  m_CorrespondingSourceObject: {fileID: 0}
  m_PrefabInternal: {fileID: 0}
  serializedVersion: 6
  m_Component:
  - component: {fileID: 398676040}
  - component: {fileID: 398676039}
  - component: {fileID: 398676038}
  - component: {fileID: 398676037}
  - component: {fileID: 398676036}
  - component: {fileID: 398676035}
  - component: {fileID: 398676034}
  m_Layer: 0
  m_Name: Player
  m_TagString: Untagged
  m_Icon: {fileID: 0}
  m_NavMeshLayer: 0
  m_StaticEditorFlags: 0
  m_IsActive: 1
--- !u!114 &398676034
MonoBehaviour:
  m_ObjectHideFlags: 0
  m_CorrespondingSourceObject: {fileID: 0}
  m_PrefabInternal: {fileID: 0}
  m_GameObject: {fileID: 398676033}
  m_Enabled: 1
  m_EditorHideFlags: 0
  m_Script: {fileID: 11500000, guid: dbf9db670c1df4bb2843b82560ce5409, type: 3}
  m_Name: 
  m_EditorClassIdentifier: 
  icon: {fileID: 21300000, guid: 9abce3e87c5b94d899d1dbbdc1b9a2ff, type: 3}
  size: {x: 20, y: 20}
  rotateWithObject: 1
  upAxis: {x: 0, y: 1, z: 0}
  initialIconRotation: 0
  clampIconInBorder: 1
  clampDistance: 100
--- !u!114 &398676035
MonoBehaviour:
  m_ObjectHideFlags: 0
  m_CorrespondingSourceObject: {fileID: 0}
  m_PrefabInternal: {fileID: 0}
  m_GameObject: {fileID: 398676033}
  m_Enabled: 1
  m_EditorHideFlags: 0
  m_Script: {fileID: 11500000, guid: dbabdf706465f40c2850455c4f557254, type: 3}
  m_Name: 
  m_EditorClassIdentifier: 
  moveSpeed: 5
  rotationSpeed: 30
--- !u!54 &398676036
Rigidbody:
  m_ObjectHideFlags: 0
  m_CorrespondingSourceObject: {fileID: 0}
  m_PrefabInternal: {fileID: 0}
  m_GameObject: {fileID: 398676033}
  serializedVersion: 2
  m_Mass: 1
  m_Drag: 0
  m_AngularDrag: 0.05
  m_UseGravity: 1
  m_IsKinematic: 0
  m_Interpolate: 0
  m_Constraints: 80
  m_CollisionDetection: 0
--- !u!23 &398676037
MeshRenderer:
  m_ObjectHideFlags: 0
  m_CorrespondingSourceObject: {fileID: 0}
  m_PrefabInternal: {fileID: 0}
  m_GameObject: {fileID: 398676033}
  m_Enabled: 1
  m_CastShadows: 1
  m_ReceiveShadows: 1
  m_DynamicOccludee: 1
  m_MotionVectors: 1
  m_LightProbeUsage: 1
  m_ReflectionProbeUsage: 1
  m_RenderingLayerMask: 4294967295
  m_Materials:
  - {fileID: 10303, guid: 0000000000000000f000000000000000, type: 0}
  m_StaticBatchInfo:
    firstSubMesh: 0
    subMeshCount: 0
  m_StaticBatchRoot: {fileID: 0}
  m_ProbeAnchor: {fileID: 0}
  m_LightProbeVolumeOverride: {fileID: 0}
  m_ScaleInLightmap: 1
  m_PreserveUVs: 1
  m_IgnoreNormalsForChartDetection: 0
  m_ImportantGI: 0
  m_StitchLightmapSeams: 0
  m_SelectedEditorRenderState: 3
  m_MinimumChartSize: 4
  m_AutoUVMaxDistance: 0.5
  m_AutoUVMaxAngle: 89
  m_LightmapParameters: {fileID: 0}
  m_SortingLayerID: 0
  m_SortingLayer: 0
  m_SortingOrder: 0
--- !u!136 &398676038
CapsuleCollider:
  m_ObjectHideFlags: 0
  m_CorrespondingSourceObject: {fileID: 0}
  m_PrefabInternal: {fileID: 0}
  m_GameObject: {fileID: 398676033}
  m_Material: {fileID: 0}
  m_IsTrigger: 0
  m_Enabled: 1
  m_Radius: 0.5
  m_Height: 2
  m_Direction: 1
  m_Center: {x: 0, y: 0, z: 0}
--- !u!33 &398676039
MeshFilter:
  m_ObjectHideFlags: 0
  m_CorrespondingSourceObject: {fileID: 0}
  m_PrefabInternal: {fileID: 0}
  m_GameObject: {fileID: 398676033}
  m_Mesh: {fileID: 10208, guid: 0000000000000000e000000000000000, type: 0}
--- !u!4 &398676040
Transform:
  m_ObjectHideFlags: 0
  m_CorrespondingSourceObject: {fileID: 0}
  m_PrefabInternal: {fileID: 0}
  m_GameObject: {fileID: 398676033}
  m_LocalRotation: {x: 0, y: 0, z: 0, w: 1}
  m_LocalPosition: {x: 0, y: 9.08, z: 0}
  m_LocalScale: {x: 1, y: 1, z: 1}
  m_Children:
  - {fileID: 463068579}
  m_Father: {fileID: 0}
  m_RootOrder: 6
  m_LocalEulerAnglesHint: {x: 0, y: 0, z: 0}
--- !u!1 &463068578
GameObject:
  m_ObjectHideFlags: 0
  m_CorrespondingSourceObject: {fileID: 0}
  m_PrefabInternal: {fileID: 0}
  serializedVersion: 6
  m_Component:
  - component: {fileID: 463068579}
  - component: {fileID: 463068583}
  - component: {fileID: 463068582}
  - component: {fileID: 463068581}
  - component: {fileID: 463068580}
  m_Layer: 0
  m_Name: Camera
  m_TagString: Untagged
  m_Icon: {fileID: 0}
  m_NavMeshLayer: 0
  m_StaticEditorFlags: 0
  m_IsActive: 1
--- !u!4 &463068579
Transform:
  m_ObjectHideFlags: 0
  m_CorrespondingSourceObject: {fileID: 0}
  m_PrefabInternal: {fileID: 0}
  m_GameObject: {fileID: 463068578}
  m_LocalRotation: {x: 0.06993057, y: 0, z: 0, w: 0.99755186}
  m_LocalPosition: {x: 0, y: 1.61, z: -4.03}
  m_LocalScale: {x: 1, y: 1, z: 1}
  m_Children: []
  m_Father: {fileID: 398676040}
  m_RootOrder: 0
  m_LocalEulerAnglesHint: {x: 8.02, y: 0, z: 0}
--- !u!81 &463068580
AudioListener:
  m_ObjectHideFlags: 0
  m_CorrespondingSourceObject: {fileID: 0}
  m_PrefabInternal: {fileID: 0}
  m_GameObject: {fileID: 463068578}
  m_Enabled: 1
--- !u!92 &463068581
Behaviour:
  m_ObjectHideFlags: 0
  m_CorrespondingSourceObject: {fileID: 0}
  m_PrefabInternal: {fileID: 0}
  m_GameObject: {fileID: 463068578}
  m_Enabled: 1
--- !u!124 &463068582
Behaviour:
  m_ObjectHideFlags: 0
  m_CorrespondingSourceObject: {fileID: 0}
  m_PrefabInternal: {fileID: 0}
  m_GameObject: {fileID: 463068578}
  m_Enabled: 1
--- !u!20 &463068583
Camera:
  m_ObjectHideFlags: 0
  m_CorrespondingSourceObject: {fileID: 0}
  m_PrefabInternal: {fileID: 0}
  m_GameObject: {fileID: 463068578}
  m_Enabled: 1
  serializedVersion: 2
  m_ClearFlags: 1
  m_BackGroundColor: {r: 0.19215687, g: 0.3019608, b: 0.4745098, a: 0}
  m_projectionMatrixMode: 1
  m_SensorSize: {x: 36, y: 24}
  m_LensShift: {x: 0, y: 0}
  m_FocalLength: 50
  m_NormalizedViewPortRect:
    serializedVersion: 2
    x: 0
    y: 0
    width: 1
    height: 1
  near clip plane: 0.3
  far clip plane: 1000
  field of view: 60
  orthographic: 0
  orthographic size: 5
  m_Depth: 0
  m_CullingMask:
    serializedVersion: 2
    m_Bits: 4294967295
  m_RenderingPath: -1
  m_TargetTexture: {fileID: 0}
  m_TargetDisplay: 0
  m_TargetEye: 3
  m_HDR: 0
  m_AllowMSAA: 1
  m_AllowDynamicResolution: 0
  m_ForceIntoRT: 0
  m_OcclusionCulling: 1
  m_StereoConvergence: 10
  m_StereoSeparation: 0.022
--- !u!1 &500198279
GameObject:
  m_ObjectHideFlags: 0
  m_CorrespondingSourceObject: {fileID: 0}
  m_PrefabInternal: {fileID: 0}
  serializedVersion: 6
  m_Component:
  - component: {fileID: 500198284}
  - component: {fileID: 500198283}
  - component: {fileID: 500198282}
  - component: {fileID: 500198281}
  - component: {fileID: 500198280}
  m_Layer: 0
  m_Name: Enemy (2)
  m_TagString: Untagged
  m_Icon: {fileID: 0}
  m_NavMeshLayer: 0
  m_StaticEditorFlags: 0
  m_IsActive: 1
--- !u!114 &500198280
MonoBehaviour:
  m_ObjectHideFlags: 0
  m_CorrespondingSourceObject: {fileID: 0}
  m_PrefabInternal: {fileID: 0}
  m_GameObject: {fileID: 500198279}
  m_Enabled: 1
  m_EditorHideFlags: 0
  m_Script: {fileID: 11500000, guid: dbf9db670c1df4bb2843b82560ce5409, type: 3}
  m_Name: 
  m_EditorClassIdentifier: 
  icon: {fileID: 21300000, guid: 5b47ca1209db34047b14f65d2db913e4, type: 3}
  size: {x: 20, y: 20}
  rotateWithObject: 1
  upAxis: {x: 0, y: 1, z: 0}
  initialIconRotation: 0
  clampIconInBorder: 1
  clampDistance: 100
--- !u!23 &500198281
MeshRenderer:
  m_ObjectHideFlags: 0
  m_CorrespondingSourceObject: {fileID: 0}
  m_PrefabInternal: {fileID: 0}
  m_GameObject: {fileID: 500198279}
  m_Enabled: 1
  m_CastShadows: 1
  m_ReceiveShadows: 1
  m_DynamicOccludee: 1
  m_MotionVectors: 1
  m_LightProbeUsage: 1
  m_ReflectionProbeUsage: 1
  m_RenderingLayerMask: 4294967295
  m_Materials:
  - {fileID: 2100000, guid: e75e04fc5ddc846e2aaf0a78925134c7, type: 2}
  m_StaticBatchInfo:
    firstSubMesh: 0
    subMeshCount: 0
  m_StaticBatchRoot: {fileID: 0}
  m_ProbeAnchor: {fileID: 0}
  m_LightProbeVolumeOverride: {fileID: 0}
  m_ScaleInLightmap: 1
  m_PreserveUVs: 1
  m_IgnoreNormalsForChartDetection: 0
  m_ImportantGI: 0
  m_StitchLightmapSeams: 0
  m_SelectedEditorRenderState: 3
  m_MinimumChartSize: 4
  m_AutoUVMaxDistance: 0.5
  m_AutoUVMaxAngle: 89
  m_LightmapParameters: {fileID: 0}
  m_SortingLayerID: 0
  m_SortingLayer: 0
  m_SortingOrder: 0
--- !u!65 &500198282
BoxCollider:
  m_ObjectHideFlags: 0
  m_CorrespondingSourceObject: {fileID: 0}
  m_PrefabInternal: {fileID: 0}
  m_GameObject: {fileID: 500198279}
  m_Material: {fileID: 0}
  m_IsTrigger: 0
  m_Enabled: 1
  serializedVersion: 2
  m_Size: {x: 1, y: 1, z: 1}
  m_Center: {x: 0, y: 0, z: 0}
--- !u!33 &500198283
MeshFilter:
  m_ObjectHideFlags: 0
  m_CorrespondingSourceObject: {fileID: 0}
  m_PrefabInternal: {fileID: 0}
  m_GameObject: {fileID: 500198279}
  m_Mesh: {fileID: 10202, guid: 0000000000000000e000000000000000, type: 0}
--- !u!4 &500198284
Transform:
  m_ObjectHideFlags: 0
  m_CorrespondingSourceObject: {fileID: 0}
  m_PrefabInternal: {fileID: 0}
  m_GameObject: {fileID: 500198279}
  m_LocalRotation: {x: 0, y: 0, z: 0, w: 1}
  m_LocalPosition: {x: -11.8, y: 8.5, z: -19.9}
  m_LocalScale: {x: 1.5474236, y: 1.5474235, z: 1.5474235}
  m_Children: []
  m_Father: {fileID: 0}
  m_RootOrder: 4
  m_LocalEulerAnglesHint: {x: 0, y: 0, z: 0}
--- !u!1 &539821850
GameObject:
  m_ObjectHideFlags: 0
  m_CorrespondingSourceObject: {fileID: 124524, guid: 98e2b8a7d6de642f8ae08a3cbb957b7a,
    type: 2}
  m_PrefabInternal: {fileID: 1400175052}
  serializedVersion: 6
  m_Component:
  - component: {fileID: 539821854}
  - component: {fileID: 539821851}
  - component: {fileID: 539821853}
  - component: {fileID: 539821852}
  m_Layer: 5
  m_Name: MiniCam
  m_TagString: Untagged
  m_Icon: {fileID: 0}
  m_NavMeshLayer: 0
  m_StaticEditorFlags: 0
  m_IsActive: 1
--- !u!20 &539821851
Camera:
  m_ObjectHideFlags: 0
  m_CorrespondingSourceObject: {fileID: 2057960, guid: 98e2b8a7d6de642f8ae08a3cbb957b7a,
    type: 2}
  m_PrefabInternal: {fileID: 1400175052}
  m_GameObject: {fileID: 539821850}
  m_Enabled: 1
  serializedVersion: 2
  m_ClearFlags: 1
  m_BackGroundColor: {r: 0.19215687, g: 0.3019608, b: 0.4745098, a: 0.019607844}
  m_projectionMatrixMode: 1
  m_SensorSize: {x: 36, y: 24}
  m_LensShift: {x: 0, y: 0}
  m_FocalLength: 50
  m_NormalizedViewPortRect:
    serializedVersion: 2
    x: 0
    y: 0
    width: 1
    height: 1
  near clip plane: 0.3
  far clip plane: 1000
  field of view: 60
  orthographic: 1
  orthographic size: 20
  m_Depth: 0
  m_CullingMask:
    serializedVersion: 2
    m_Bits: 256
  m_RenderingPath: -1
  m_TargetTexture: {fileID: 1216411475}
  m_TargetDisplay: 0
  m_TargetEye: 3
  m_HDR: 0
  m_AllowMSAA: 1
  m_AllowDynamicResolution: 0
  m_ForceIntoRT: 0
  m_OcclusionCulling: 1
  m_StereoConvergence: 10
  m_StereoSeparation: 0.022
--- !u!92 &539821852
Behaviour:
  m_ObjectHideFlags: 0
  m_CorrespondingSourceObject: {fileID: 9292950, guid: 98e2b8a7d6de642f8ae08a3cbb957b7a,
    type: 2}
  m_PrefabInternal: {fileID: 1400175052}
  m_GameObject: {fileID: 539821850}
  m_Enabled: 1
--- !u!124 &539821853
Behaviour:
  m_ObjectHideFlags: 0
  m_CorrespondingSourceObject: {fileID: 12415776, guid: 98e2b8a7d6de642f8ae08a3cbb957b7a,
    type: 2}
  m_PrefabInternal: {fileID: 1400175052}
  m_GameObject: {fileID: 539821850}
  m_Enabled: 1
--- !u!4 &539821854
Transform:
  m_ObjectHideFlags: 0
  m_CorrespondingSourceObject: {fileID: 478136, guid: 98e2b8a7d6de642f8ae08a3cbb957b7a,
    type: 2}
  m_PrefabInternal: {fileID: 1400175052}
  m_GameObject: {fileID: 539821850}
  m_LocalRotation: {x: 0.7071068, y: -0, z: -0, w: 0.7071068}
  m_LocalPosition: {x: -461.9867, y: -227.96455, z: 0}
  m_LocalScale: {x: 1, y: 1, z: 1}
  m_Children: []
  m_Father: {fileID: 1344477744}
  m_RootOrder: 0
  m_LocalEulerAnglesHint: {x: 0, y: 0, z: 0}
--- !u!1 &674761684
GameObject:
  m_ObjectHideFlags: 0
  m_CorrespondingSourceObject: {fileID: 0}
  m_PrefabInternal: {fileID: 0}
  serializedVersion: 6
  m_Component:
  - component: {fileID: 674761689}
  - component: {fileID: 674761688}
  - component: {fileID: 674761687}
  - component: {fileID: 674761686}
  - component: {fileID: 674761685}
  m_Layer: 0
  m_Name: Enemy (3)
  m_TagString: Untagged
  m_Icon: {fileID: 0}
  m_NavMeshLayer: 0
  m_StaticEditorFlags: 0
  m_IsActive: 1
--- !u!114 &674761685
MonoBehaviour:
  m_ObjectHideFlags: 0
  m_CorrespondingSourceObject: {fileID: 0}
  m_PrefabInternal: {fileID: 0}
  m_GameObject: {fileID: 674761684}
  m_Enabled: 1
  m_EditorHideFlags: 0
  m_Script: {fileID: 11500000, guid: dbf9db670c1df4bb2843b82560ce5409, type: 3}
  m_Name: 
  m_EditorClassIdentifier: 
  icon: {fileID: 21300000, guid: 5b47ca1209db34047b14f65d2db913e4, type: 3}
  size: {x: 20, y: 20}
  rotateWithObject: 1
  upAxis: {x: 0, y: 1, z: 0}
  initialIconRotation: 0
  clampIconInBorder: 1
  clampDistance: 100
--- !u!23 &674761686
MeshRenderer:
  m_ObjectHideFlags: 0
  m_CorrespondingSourceObject: {fileID: 0}
  m_PrefabInternal: {fileID: 0}
  m_GameObject: {fileID: 674761684}
  m_Enabled: 1
  m_CastShadows: 1
  m_ReceiveShadows: 1
  m_DynamicOccludee: 1
  m_MotionVectors: 1
  m_LightProbeUsage: 1
  m_ReflectionProbeUsage: 1
  m_RenderingLayerMask: 4294967295
  m_Materials:
  - {fileID: 2100000, guid: e75e04fc5ddc846e2aaf0a78925134c7, type: 2}
  m_StaticBatchInfo:
    firstSubMesh: 0
    subMeshCount: 0
  m_StaticBatchRoot: {fileID: 0}
  m_ProbeAnchor: {fileID: 0}
  m_LightProbeVolumeOverride: {fileID: 0}
  m_ScaleInLightmap: 1
  m_PreserveUVs: 1
  m_IgnoreNormalsForChartDetection: 0
  m_ImportantGI: 0
  m_StitchLightmapSeams: 0
  m_SelectedEditorRenderState: 3
  m_MinimumChartSize: 4
  m_AutoUVMaxDistance: 0.5
  m_AutoUVMaxAngle: 89
  m_LightmapParameters: {fileID: 0}
  m_SortingLayerID: 0
  m_SortingLayer: 0
  m_SortingOrder: 0
--- !u!65 &674761687
BoxCollider:
  m_ObjectHideFlags: 0
  m_CorrespondingSourceObject: {fileID: 0}
  m_PrefabInternal: {fileID: 0}
  m_GameObject: {fileID: 674761684}
  m_Material: {fileID: 0}
  m_IsTrigger: 0
  m_Enabled: 1
  serializedVersion: 2
  m_Size: {x: 1, y: 1, z: 1}
  m_Center: {x: 0, y: 0, z: 0}
--- !u!33 &674761688
MeshFilter:
  m_ObjectHideFlags: 0
  m_CorrespondingSourceObject: {fileID: 0}
  m_PrefabInternal: {fileID: 0}
  m_GameObject: {fileID: 674761684}
  m_Mesh: {fileID: 10202, guid: 0000000000000000e000000000000000, type: 0}
--- !u!4 &674761689
Transform:
  m_ObjectHideFlags: 0
  m_CorrespondingSourceObject: {fileID: 0}
  m_PrefabInternal: {fileID: 0}
  m_GameObject: {fileID: 674761684}
  m_LocalRotation: {x: 0, y: 0.96709037, z: 0, w: 0.25443313}
  m_LocalPosition: {x: -3.7, y: 8.5, z: 6.9}
  m_LocalScale: {x: 1.5474236, y: 1.5474235, z: 1.5474235}
  m_Children: []
  m_Father: {fileID: 0}
  m_RootOrder: 5
  m_LocalEulerAnglesHint: {x: 0, y: 150.52, z: 0}
--- !u!1 &698569064
GameObject:
  m_ObjectHideFlags: 0
  m_CorrespondingSourceObject: {fileID: 188764, guid: 98e2b8a7d6de642f8ae08a3cbb957b7a,
    type: 2}
  m_PrefabInternal: {fileID: 1400175052}
  serializedVersion: 6
  m_Component:
  - component: {fileID: 698569065}
  - component: {fileID: 698569068}
  - component: {fileID: 698569067}
  - component: {fileID: 698569066}
  m_Layer: 5
  m_Name: MiniMapMaskPanel
  m_TagString: Untagged
  m_Icon: {fileID: 0}
  m_NavMeshLayer: 0
  m_StaticEditorFlags: 0
  m_IsActive: 1
--- !u!224 &698569065
RectTransform:
  m_ObjectHideFlags: 0
  m_CorrespondingSourceObject: {fileID: 22467562, guid: 98e2b8a7d6de642f8ae08a3cbb957b7a,
    type: 2}
  m_PrefabInternal: {fileID: 1400175052}
  m_GameObject: {fileID: 698569064}
  m_LocalRotation: {x: 0, y: 0, z: 0, w: 1}
  m_LocalPosition: {x: 0, y: 0, z: 0}
  m_LocalScale: {x: 1, y: 1, z: 1}
  m_Children:
  - {fileID: 1637477683}
  m_Father: {fileID: 1644070546}
  m_RootOrder: 1
  m_LocalEulerAnglesHint: {x: 0, y: 0, z: 0}
  m_AnchorMin: {x: 0.5, y: 0.5}
  m_AnchorMax: {x: 0.5, y: 0.5}
  m_AnchoredPosition: {x: -1, y: 1}
  m_SizeDelta: {x: 286, y: 180}
  m_Pivot: {x: 0.5, y: 0.5}
--- !u!114 &698569066
MonoBehaviour:
  m_ObjectHideFlags: 0
  m_CorrespondingSourceObject: {fileID: 11493498, guid: 98e2b8a7d6de642f8ae08a3cbb957b7a,
    type: 2}
  m_PrefabInternal: {fileID: 1400175052}
  m_GameObject: {fileID: 698569064}
  m_Enabled: 1
  m_EditorHideFlags: 0
  m_Script: {fileID: -1200242548, guid: f5f67c52d1564df4a8936ccd202a3bd8, type: 3}
  m_Name: 
  m_EditorClassIdentifier: 
  m_ShowMaskGraphic: 1
--- !u!114 &698569067
MonoBehaviour:
  m_ObjectHideFlags: 0
  m_CorrespondingSourceObject: {fileID: 11480190, guid: 98e2b8a7d6de642f8ae08a3cbb957b7a,
    type: 2}
  m_PrefabInternal: {fileID: 1400175052}
  m_GameObject: {fileID: 698569064}
  m_Enabled: 1
  m_EditorHideFlags: 0
  m_Script: {fileID: -765806418, guid: f5f67c52d1564df4a8936ccd202a3bd8, type: 3}
  m_Name: 
  m_EditorClassIdentifier: 
  m_Material: {fileID: 0}
  m_Color: {r: 1, g: 1, b: 1, a: 1}
  m_RaycastTarget: 0
  m_OnCullStateChanged:
    m_PersistentCalls:
      m_Calls: []
    m_TypeName: UnityEngine.UI.MaskableGraphic+CullStateChangedEvent, UnityEngine.UI,
      Version=1.0.0.0, Culture=neutral, PublicKeyToken=null
  m_Sprite: {fileID: 21300000, guid: c12930c043cf541e18d1b05db83e2be0, type: 3}
  m_Type: 0
  m_PreserveAspect: 0
  m_FillCenter: 1
  m_FillMethod: 4
  m_FillAmount: 1
  m_FillClockwise: 1
  m_FillOrigin: 0
--- !u!222 &698569068
CanvasRenderer:
  m_ObjectHideFlags: 0
  m_CorrespondingSourceObject: {fileID: 22217066, guid: 98e2b8a7d6de642f8ae08a3cbb957b7a,
    type: 2}
  m_PrefabInternal: {fileID: 1400175052}
  m_GameObject: {fileID: 698569064}
  m_CullTransparentMesh: 0
--- !u!1 &780914578
GameObject:
  m_ObjectHideFlags: 0
  m_CorrespondingSourceObject: {fileID: 1999750985056246, guid: 98e2b8a7d6de642f8ae08a3cbb957b7a,
    type: 2}
  m_PrefabInternal: {fileID: 1400175052}
  serializedVersion: 6
  m_Component:
  - component: {fileID: 780914579}
  - component: {fileID: 780914583}
  - component: {fileID: 780914582}
  - component: {fileID: 780914581}
  - component: {fileID: 780914580}
  m_Layer: 5
  m_Name: ShapeCollider
  m_TagString: Untagged
  m_Icon: {fileID: 0}
  m_NavMeshLayer: 0
  m_StaticEditorFlags: 0
  m_IsActive: 1
--- !u!224 &780914579
RectTransform:
  m_ObjectHideFlags: 0
  m_CorrespondingSourceObject: {fileID: 224208162213268494, guid: 98e2b8a7d6de642f8ae08a3cbb957b7a,
    type: 2}
  m_PrefabInternal: {fileID: 1400175052}
  m_GameObject: {fileID: 780914578}
  m_LocalRotation: {x: -0, y: -0, z: -0, w: 1}
  m_LocalPosition: {x: 0, y: 0, z: 0}
  m_LocalScale: {x: 57.12, y: 54.6, z: 1}
  m_Children: []
  m_Father: {fileID: 1644070546}
  m_RootOrder: 0
  m_LocalEulerAnglesHint: {x: 0, y: 0, z: 0}
  m_AnchorMin: {x: 0, y: 0}
  m_AnchorMax: {x: 1, y: 1}
  m_AnchoredPosition: {x: -5.050003, y: 1.7750015}
  m_SizeDelta: {x: 10.099998, y: 3.55}
  m_Pivot: {x: 0.5, y: 0.5}
--- !u!60 &780914580
PolygonCollider2D:
  m_ObjectHideFlags: 0
  m_CorrespondingSourceObject: {fileID: 60966953612936850, guid: 98e2b8a7d6de642f8ae08a3cbb957b7a,
    type: 2}
  m_PrefabInternal: {fileID: 1400175052}
  m_GameObject: {fileID: 780914578}
  m_Enabled: 1
  m_Density: 1
  m_Material: {fileID: 0}
  m_IsTrigger: 0
  m_UsedByEffector: 0
  m_UsedByComposite: 0
  m_Offset: {x: 0, y: 0}
  m_SpriteTilingProperty:
    border: {x: 0, y: 0, z: 0, w: 0}
    pivot: {x: 0, y: 0}
    oldSize: {x: 0, y: 0}
    newSize: {x: 0, y: 0}
    adaptiveTilingThreshold: 0
    drawMode: 0
    adaptiveTiling: 0
  m_AutoTiling: 0
  m_Points:
    m_Paths:
    - - {x: 1.12, y: -0.5}
      - {x: 1.41, y: -0.39}
      - {x: 1.53, y: -0.35}
      - {x: 1.67, y: -0.26}
      - {x: 1.8, y: -0.22999999}
      - {x: 1.88, y: -0.19}
      - {x: 2.113147, y: -0.041543473}
      - {x: 2.1550915, y: 0.32305053}
      - {x: 2.1671019, y: 0.52034914}
      - {x: 2.130064, y: 0.74221957}
      - {x: 1.9869761, y: 0.87180793}
      - {x: 1.7787294, y: 0.8591709}
      - {x: 1.6634917, y: 0.6380706}
      - {x: 1.3395134, y: 0.5349217}
      - {x: 1.2999994, y: 0.7185329}
      - {x: 1.18, y: 0.76}
      - {x: 1.13, y: 0.78}
      - {x: 0.90999997, y: 0.83}
      - {x: 0.74, y: 0.95}
      - {x: 0.65, y: 0.97999996}
      - {x: 0.32999998, y: 0.98999995}
      - {x: 0.25, y: 1.01}
      - {x: -0.02, y: 1.01}
      - {x: -0.12, y: 0.97999996}
      - {x: -0.25, y: 0.93}
      - {x: -0.44, y: 0.88}
      - {x: -0.53999996, y: 0.88}
      - {x: -0.7, y: 0.93}
      - {x: -1.0799999, y: 0.93}
      - {x: -1.28, y: 0.97999996}
      - {x: -1.48, y: 0.97999996}
      - {x: -1.63, y: 0.84999996}
      - {x: -1.73, y: 0.64}
      - {x: -1.92, y: 0.42999998}
      - {x: -1.93, y: 0.39}
      - {x: -1.93, y: 0.01}
      - {x: -1.9, y: -0.16}
      - {x: -1.7217541, y: -0.18127237}
      - {x: -1.5296216, y: -0.22127339}
      - {x: -1.3547554, y: -0.35762635}
      - {x: -1.22689, y: -0.49768302}
      - {x: -1.18, y: -0.69}
      - {x: -1.09, y: -0.71}
      - {x: -0.92086464, y: -0.5712745}
      - {x: -0.63475704, y: -0.6340344}
      - {x: -0.44475645, y: -0.7012736}
      - {x: -0.32, y: -0.91999996}
      - {x: -0.25, y: -0.96}
      - {x: 0.38, y: -0.96}
      - {x: 0.59999996, y: -0.94}
      - {x: 0.71999997, y: -0.89}
      - {x: 0.94, y: -0.63}
--- !u!58 &780914581
CircleCollider2D:
  m_ObjectHideFlags: 0
  m_CorrespondingSourceObject: {fileID: 58344563136650008, guid: 98e2b8a7d6de642f8ae08a3cbb957b7a,
    type: 2}
  m_PrefabInternal: {fileID: 1400175052}
  m_GameObject: {fileID: 780914578}
  m_Enabled: 0
  m_Density: 1
  m_Material: {fileID: 0}
  m_IsTrigger: 1
  m_UsedByEffector: 0
  m_UsedByComposite: 0
  m_Offset: {x: 0, y: 0}
  serializedVersion: 2
  m_Radius: 1.3
--- !u!61 &780914582
BoxCollider2D:
  m_ObjectHideFlags: 0
  m_CorrespondingSourceObject: {fileID: 61911940042942182, guid: 98e2b8a7d6de642f8ae08a3cbb957b7a,
    type: 2}
  m_PrefabInternal: {fileID: 1400175052}
  m_GameObject: {fileID: 780914578}
  m_Enabled: 0
  m_Density: 1
  m_Material: {fileID: 0}
  m_IsTrigger: 1
  m_UsedByEffector: 0
  m_UsedByComposite: 0
  m_Offset: {x: -0.09, y: -0.37}
  m_SpriteTilingProperty:
    border: {x: 0, y: 0, z: 0, w: 0}
    pivot: {x: 0, y: 0}
    oldSize: {x: 0, y: 0}
    newSize: {x: 0, y: 0}
    adaptiveTilingThreshold: 0
    drawMode: 0
    adaptiveTiling: 0
  m_AutoTiling: 0
  serializedVersion: 2
  m_Size: {x: 2.7, y: 2.26}
  m_EdgeRadius: 0
--- !u!222 &780914583
CanvasRenderer:
  m_ObjectHideFlags: 0
  m_CorrespondingSourceObject: {fileID: 222623229374525414, guid: 98e2b8a7d6de642f8ae08a3cbb957b7a,
    type: 2}
  m_PrefabInternal: {fileID: 1400175052}
  m_GameObject: {fileID: 780914578}
  m_CullTransparentMesh: 0
--- !u!84 &1216411475
RenderTexture:
  m_ObjectHideFlags: 0
  m_CorrespondingSourceObject: {fileID: 0}
  m_PrefabInternal: {fileID: 0}
  m_Name: 
  m_ImageContentsHash:
    serializedVersion: 2
    Hash: 00000000000000000000000000000000
  m_ForcedFallbackFormat: 4
  m_DownscaleFallback: 0
  m_Width: 286
  m_Height: 180
  m_AntiAliasing: 1
  m_DepthFormat: 2
  m_ColorFormat: 7
  m_MipMap: 0
  m_GenerateMips: 1
  m_SRGB: 0
  m_UseDynamicScale: 0
  m_BindMS: 0
  m_TextureSettings:
    serializedVersion: 2
    m_FilterMode: 1
    m_Aniso: 0
    m_MipBias: 0
    m_WrapU: 1
    m_WrapV: 1
    m_WrapW: 1
  m_Dimension: 2
  m_VolumeDepth: 1
--- !u!1 &1344477739
GameObject:
  m_ObjectHideFlags: 0
  m_CorrespondingSourceObject: {fileID: 185812, guid: 98e2b8a7d6de642f8ae08a3cbb957b7a,
    type: 2}
  m_PrefabInternal: {fileID: 1400175052}
  serializedVersion: 6
  m_Component:
  - component: {fileID: 1344477744}
  - component: {fileID: 1344477743}
  - component: {fileID: 1344477742}
  - component: {fileID: 1344477741}
  - component: {fileID: 1344477740}
  m_Layer: 5
  m_Name: CanvasMiniMap
  m_TagString: Untagged
  m_Icon: {fileID: 0}
  m_NavMeshLayer: 0
  m_StaticEditorFlags: 0
  m_IsActive: 1
--- !u!114 &1344477740
MonoBehaviour:
  m_ObjectHideFlags: 0
  m_CorrespondingSourceObject: {fileID: 11488608, guid: 98e2b8a7d6de642f8ae08a3cbb957b7a,
    type: 2}
  m_PrefabInternal: {fileID: 1400175052}
  m_GameObject: {fileID: 1344477739}
  m_Enabled: 1
  m_EditorHideFlags: 0
  m_Script: {fileID: 11500000, guid: fee82f5d308b5499783c1dd290c83534, type: 3}
  m_Name: 
  m_EditorClassIdentifier: 
  shapeColliderGO: {fileID: 780914579}
  renderTex: {fileID: 1216411475}
  mapMaterial: {fileID: 2100000, guid: 65bbe9e0008384c5997f0cf300c3cb81, type: 2}
  iconPref: {fileID: 100164, guid: d392edba23dec4ef38924695a920a568, type: 2}
  mapCamera: {fileID: 539821851}
  target: {fileID: 398676040}
  minimapLayers:
    serializedVersion: 2
    m_Bits: 256
  showBackground: 1
  miniMapMask: {fileID: 21300000, guid: e55437de61f14403ab1a94679a7396a0, type: 3}
  miniMapBorder: {fileID: 21300000, guid: e55437de61f14403ab1a94679a7396a0, type: 3}
  miniMapOpacity: 1
  miniMapScale: {x: 0.7, y: 0.7, z: 1}
  cameraOffset: {x: 0, y: 7.5, z: 0}
  camSize: 20
  camFarClip: 1000
  rotationOfCam: {x: 90, y: 0, z: 0}
  rotateWithTarget: 1
--- !u!114 &1344477741
MonoBehaviour:
  m_ObjectHideFlags: 0
  m_CorrespondingSourceObject: {fileID: 11464744, guid: 98e2b8a7d6de642f8ae08a3cbb957b7a,
    type: 2}
  m_PrefabInternal: {fileID: 1400175052}
  m_GameObject: {fileID: 1344477739}
  m_Enabled: 1
  m_EditorHideFlags: 0
  m_Script: {fileID: 1301386320, guid: f5f67c52d1564df4a8936ccd202a3bd8, type: 3}
  m_Name: 
  m_EditorClassIdentifier: 
  m_IgnoreReversedGraphics: 1
  m_BlockingObjects: 0
  m_BlockingMask:
    serializedVersion: 2
    m_Bits: 4294967295
--- !u!114 &1344477742
MonoBehaviour:
  m_ObjectHideFlags: 0
  m_CorrespondingSourceObject: {fileID: 11433016, guid: 98e2b8a7d6de642f8ae08a3cbb957b7a,
    type: 2}
  m_PrefabInternal: {fileID: 1400175052}
  m_GameObject: {fileID: 1344477739}
  m_Enabled: 1
  m_EditorHideFlags: 0
  m_Script: {fileID: 1980459831, guid: f5f67c52d1564df4a8936ccd202a3bd8, type: 3}
  m_Name: 
  m_EditorClassIdentifier: 
  m_UiScaleMode: 1
  m_ReferencePixelsPerUnit: 100
  m_ScaleFactor: 1
  m_ReferenceResolution: {x: 800, y: 600}
  m_ScreenMatchMode: 0
  m_MatchWidthOrHeight: 0.5
  m_PhysicalUnit: 3
  m_FallbackScreenDPI: 96
  m_DefaultSpriteDPI: 96
  m_DynamicPixelsPerUnit: 1
--- !u!223 &1344477743
Canvas:
  m_ObjectHideFlags: 0
  m_CorrespondingSourceObject: {fileID: 22364652, guid: 98e2b8a7d6de642f8ae08a3cbb957b7a,
    type: 2}
  m_PrefabInternal: {fileID: 1400175052}
  m_GameObject: {fileID: 1344477739}
  m_Enabled: 1
  serializedVersion: 3
  m_RenderMode: 0
  m_Camera: {fileID: 0}
  m_PlaneDistance: 100
  m_PixelPerfect: 1
  m_ReceivesEvents: 1
  m_OverrideSorting: 0
  m_OverridePixelPerfect: 0
  m_SortingBucketNormalizedSize: 0
  m_AdditionalShaderChannelsFlag: 25
  m_SortingLayerID: 0
  m_SortingOrder: 0
  m_TargetDisplay: 0
--- !u!224 &1344477744
RectTransform:
  m_ObjectHideFlags: 0
  m_CorrespondingSourceObject: {fileID: 22414296, guid: 98e2b8a7d6de642f8ae08a3cbb957b7a,
    type: 2}
  m_PrefabInternal: {fileID: 1400175052}
  m_GameObject: {fileID: 1344477739}
  m_LocalRotation: {x: 0, y: 0, z: 0, w: 1}
  m_LocalPosition: {x: 0, y: 0, z: 0}
  m_LocalScale: {x: 0, y: 0, z: 0}
  m_Children:
  - {fileID: 539821854}
  - {fileID: 1644070546}
  m_Father: {fileID: 0}
  m_RootOrder: 7
  m_LocalEulerAnglesHint: {x: 0, y: 0, z: 0}
  m_AnchorMin: {x: 0, y: 0}
  m_AnchorMax: {x: 0, y: 0}
  m_AnchoredPosition: {x: 0, y: 0}
  m_SizeDelta: {x: 0, y: 0}
  m_Pivot: {x: 0, y: 0}
--- !u!1 &1389553909
GameObject:
  m_ObjectHideFlags: 0
  m_CorrespondingSourceObject: {fileID: 0}
  m_PrefabInternal: {fileID: 0}
  serializedVersion: 6
  m_Component:
  - component: {fileID: 1389553913}
  - component: {fileID: 1389553912}
  - component: {fileID: 1389553911}
  - component: {fileID: 1389553910}
  - component: {fileID: 1389553914}
  m_Layer: 0
  m_Name: Enemy
  m_TagString: Untagged
  m_Icon: {fileID: 0}
  m_NavMeshLayer: 0
  m_StaticEditorFlags: 0
  m_IsActive: 1
--- !u!23 &1389553910
MeshRenderer:
  m_ObjectHideFlags: 0
  m_CorrespondingSourceObject: {fileID: 0}
  m_PrefabInternal: {fileID: 0}
  m_GameObject: {fileID: 1389553909}
  m_Enabled: 1
  m_CastShadows: 1
  m_ReceiveShadows: 1
  m_DynamicOccludee: 1
  m_MotionVectors: 1
  m_LightProbeUsage: 1
  m_ReflectionProbeUsage: 1
  m_RenderingLayerMask: 4294967295
  m_Materials:
  - {fileID: 2100000, guid: e75e04fc5ddc846e2aaf0a78925134c7, type: 2}
  m_StaticBatchInfo:
    firstSubMesh: 0
    subMeshCount: 0
  m_StaticBatchRoot: {fileID: 0}
  m_ProbeAnchor: {fileID: 0}
  m_LightProbeVolumeOverride: {fileID: 0}
  m_ScaleInLightmap: 1
  m_PreserveUVs: 1
  m_IgnoreNormalsForChartDetection: 0
  m_ImportantGI: 0
  m_StitchLightmapSeams: 0
  m_SelectedEditorRenderState: 3
  m_MinimumChartSize: 4
  m_AutoUVMaxDistance: 0.5
  m_AutoUVMaxAngle: 89
  m_LightmapParameters: {fileID: 0}
  m_SortingLayerID: 0
  m_SortingLayer: 0
  m_SortingOrder: 0
--- !u!65 &1389553911
BoxCollider:
  m_ObjectHideFlags: 0
  m_CorrespondingSourceObject: {fileID: 0}
  m_PrefabInternal: {fileID: 0}
  m_GameObject: {fileID: 1389553909}
  m_Material: {fileID: 0}
  m_IsTrigger: 0
  m_Enabled: 1
  serializedVersion: 2
  m_Size: {x: 1, y: 1, z: 1}
  m_Center: {x: 0, y: 0, z: 0}
--- !u!33 &1389553912
MeshFilter:
  m_ObjectHideFlags: 0
  m_CorrespondingSourceObject: {fileID: 0}
  m_PrefabInternal: {fileID: 0}
  m_GameObject: {fileID: 1389553909}
  m_Mesh: {fileID: 10202, guid: 0000000000000000e000000000000000, type: 0}
--- !u!4 &1389553913
Transform:
  m_ObjectHideFlags: 0
  m_CorrespondingSourceObject: {fileID: 0}
  m_PrefabInternal: {fileID: 0}
  m_GameObject: {fileID: 1389553909}
  m_LocalRotation: {x: 0, y: 0, z: 0, w: 1}
  m_LocalPosition: {x: 18.7, y: 8.5, z: -15.6}
  m_LocalScale: {x: 1.5474236, y: 1.5474235, z: 1.5474235}
  m_Children: []
  m_Father: {fileID: 0}
  m_RootOrder: 2
  m_LocalEulerAnglesHint: {x: 0, y: 0, z: 0}
--- !u!114 &1389553914
MonoBehaviour:
  m_ObjectHideFlags: 0
  m_CorrespondingSourceObject: {fileID: 0}
  m_PrefabInternal: {fileID: 0}
  m_GameObject: {fileID: 1389553909}
  m_Enabled: 1
  m_EditorHideFlags: 0
  m_Script: {fileID: 11500000, guid: dbf9db670c1df4bb2843b82560ce5409, type: 3}
  m_Name: 
  m_EditorClassIdentifier: 
  icon: {fileID: 21300000, guid: 5b47ca1209db34047b14f65d2db913e4, type: 3}
  size: {x: 20, y: 20}
  rotateWithObject: 1
  upAxis: {x: 0, y: 1, z: 0}
  initialIconRotation: 0
  clampIconInBorder: 1
  clampDistance: 100
--- !u!1001 &1400175052
Prefab:
  m_ObjectHideFlags: 0
  serializedVersion: 2
  m_Modification:
    m_TransformParent: {fileID: 0}
    m_Modifications:
    - target: {fileID: 60966953612936850, guid: 98e2b8a7d6de642f8ae08a3cbb957b7a,
        type: 2}
      propertyPath: m_Points.m_Paths.Array.data[0].Array.size
      value: 52
      objectReference: {fileID: 0}
    - target: {fileID: 22414296, guid: 98e2b8a7d6de642f8ae08a3cbb957b7a, type: 2}
      propertyPath: m_LocalPosition.x
      value: 0
      objectReference: {fileID: 0}
    - target: {fileID: 22414296, guid: 98e2b8a7d6de642f8ae08a3cbb957b7a, type: 2}
      propertyPath: m_LocalPosition.y
      value: 0
      objectReference: {fileID: 0}
    - target: {fileID: 22414296, guid: 98e2b8a7d6de642f8ae08a3cbb957b7a, type: 2}
      propertyPath: m_LocalPosition.z
      value: 0
      objectReference: {fileID: 0}
    - target: {fileID: 22414296, guid: 98e2b8a7d6de642f8ae08a3cbb957b7a, type: 2}
      propertyPath: m_LocalRotation.x
      value: 0
      objectReference: {fileID: 0}
    - target: {fileID: 22414296, guid: 98e2b8a7d6de642f8ae08a3cbb957b7a, type: 2}
      propertyPath: m_LocalRotation.y
      value: 0
      objectReference: {fileID: 0}
    - target: {fileID: 22414296, guid: 98e2b8a7d6de642f8ae08a3cbb957b7a, type: 2}
      propertyPath: m_LocalRotation.z
      value: 0
      objectReference: {fileID: 0}
    - target: {fileID: 22414296, guid: 98e2b8a7d6de642f8ae08a3cbb957b7a, type: 2}
      propertyPath: m_LocalRotation.w
      value: 1
      objectReference: {fileID: 0}
    - target: {fileID: 22414296, guid: 98e2b8a7d6de642f8ae08a3cbb957b7a, type: 2}
      propertyPath: m_RootOrder
      value: 7
      objectReference: {fileID: 0}
    - target: {fileID: 22414296, guid: 98e2b8a7d6de642f8ae08a3cbb957b7a, type: 2}
      propertyPath: m_AnchoredPosition.x
      value: 0
      objectReference: {fileID: 0}
    - target: {fileID: 22414296, guid: 98e2b8a7d6de642f8ae08a3cbb957b7a, type: 2}
      propertyPath: m_AnchoredPosition.y
      value: 0
      objectReference: {fileID: 0}
    - target: {fileID: 22414296, guid: 98e2b8a7d6de642f8ae08a3cbb957b7a, type: 2}
      propertyPath: m_SizeDelta.x
      value: 0
      objectReference: {fileID: 0}
    - target: {fileID: 22414296, guid: 98e2b8a7d6de642f8ae08a3cbb957b7a, type: 2}
      propertyPath: m_SizeDelta.y
      value: 0
      objectReference: {fileID: 0}
    - target: {fileID: 22414296, guid: 98e2b8a7d6de642f8ae08a3cbb957b7a, type: 2}
      propertyPath: m_AnchorMin.x
      value: 0
      objectReference: {fileID: 0}
    - target: {fileID: 22414296, guid: 98e2b8a7d6de642f8ae08a3cbb957b7a, type: 2}
      propertyPath: m_AnchorMin.y
      value: 0
      objectReference: {fileID: 0}
    - target: {fileID: 22414296, guid: 98e2b8a7d6de642f8ae08a3cbb957b7a, type: 2}
      propertyPath: m_AnchorMax.x
      value: 0
      objectReference: {fileID: 0}
    - target: {fileID: 22414296, guid: 98e2b8a7d6de642f8ae08a3cbb957b7a, type: 2}
      propertyPath: m_AnchorMax.y
      value: 0
      objectReference: {fileID: 0}
    - target: {fileID: 22414296, guid: 98e2b8a7d6de642f8ae08a3cbb957b7a, type: 2}
      propertyPath: m_Pivot.x
      value: 0
      objectReference: {fileID: 0}
    - target: {fileID: 22414296, guid: 98e2b8a7d6de642f8ae08a3cbb957b7a, type: 2}
      propertyPath: m_Pivot.y
      value: 0
      objectReference: {fileID: 0}
    - target: {fileID: 22409240, guid: 98e2b8a7d6de642f8ae08a3cbb957b7a, type: 2}
      propertyPath: m_AnchoredPosition.x
      value: -1
      objectReference: {fileID: 0}
    - target: {fileID: 11488608, guid: 98e2b8a7d6de642f8ae08a3cbb957b7a, type: 2}
      propertyPath: renderTex
      value: 
      objectReference: {fileID: 181038931}
    - target: {fileID: 2057960, guid: 98e2b8a7d6de642f8ae08a3cbb957b7a, type: 2}
      propertyPath: m_TargetTexture
      value: 
      objectReference: {fileID: 1537455420}
    - target: {fileID: 11488608, guid: 98e2b8a7d6de642f8ae08a3cbb957b7a, type: 2}
      propertyPath: target
      value: 
      objectReference: {fileID: 398676040}
    - target: {fileID: 478136, guid: 98e2b8a7d6de642f8ae08a3cbb957b7a, type: 2}
      propertyPath: m_LocalPosition.x
      value: -461.9867
      objectReference: {fileID: 0}
    - target: {fileID: 478136, guid: 98e2b8a7d6de642f8ae08a3cbb957b7a, type: 2}
      propertyPath: m_LocalPosition.y
      value: -227.96455
      objectReference: {fileID: 0}
    - target: {fileID: 11488608, guid: 98e2b8a7d6de642f8ae08a3cbb957b7a, type: 2}
      propertyPath: minimapLayers.m_Bits
      value: 256
      objectReference: {fileID: 0}
    - target: {fileID: 2057960, guid: 98e2b8a7d6de642f8ae08a3cbb957b7a, type: 2}
      propertyPath: m_CullingMask.m_Bits
      value: 256
      objectReference: {fileID: 0}
    - target: {fileID: 11488608, guid: 98e2b8a7d6de642f8ae08a3cbb957b7a, type: 2}
      propertyPath: camSize
      value: 20
      objectReference: {fileID: 0}
    - target: {fileID: 2057960, guid: 98e2b8a7d6de642f8ae08a3cbb957b7a, type: 2}
      propertyPath: orthographic size
      value: 20
      objectReference: {fileID: 0}
    - target: {fileID: 22409240, guid: 98e2b8a7d6de642f8ae08a3cbb957b7a, type: 2}
      propertyPath: m_AnchoredPosition.y
      value: 1
      objectReference: {fileID: 0}
    - target: {fileID: 22454120, guid: 98e2b8a7d6de642f8ae08a3cbb957b7a, type: 2}
      propertyPath: m_AnchoredPosition.x
      value: 799
      objectReference: {fileID: 0}
    - target: {fileID: 22454120, guid: 98e2b8a7d6de642f8ae08a3cbb957b7a, type: 2}
      propertyPath: m_AnchoredPosition.y
      value: 432.3
      objectReference: {fileID: 0}
    - target: {fileID: 11488608, guid: 98e2b8a7d6de642f8ae08a3cbb957b7a, type: 2}
      propertyPath: miniMapScale.x
      value: 0.7
      objectReference: {fileID: 0}
    - target: {fileID: 22454120, guid: 98e2b8a7d6de642f8ae08a3cbb957b7a, type: 2}
      propertyPath: m_LocalScale.x
      value: 0.7
      objectReference: {fileID: 0}
    - target: {fileID: 11488608, guid: 98e2b8a7d6de642f8ae08a3cbb957b7a, type: 2}
      propertyPath: miniMapScale.y
      value: 0.7
      objectReference: {fileID: 0}
    - target: {fileID: 22454120, guid: 98e2b8a7d6de642f8ae08a3cbb957b7a, type: 2}
      propertyPath: m_LocalScale.y
      value: 0.7
      objectReference: {fileID: 0}
    - target: {fileID: 22467562, guid: 98e2b8a7d6de642f8ae08a3cbb957b7a, type: 2}
      propertyPath: m_AnchoredPosition.x
      value: -1
      objectReference: {fileID: 0}
    - target: {fileID: 22467562, guid: 98e2b8a7d6de642f8ae08a3cbb957b7a, type: 2}
      propertyPath: m_SizeDelta.x
      value: 286
      objectReference: {fileID: 0}
    - target: {fileID: 22409240, guid: 98e2b8a7d6de642f8ae08a3cbb957b7a, type: 2}
      propertyPath: m_SizeDelta.x
      value: 286
      objectReference: {fileID: 0}
    - target: {fileID: 22467562, guid: 98e2b8a7d6de642f8ae08a3cbb957b7a, type: 2}
      propertyPath: m_AnchoredPosition.y
      value: 1
      objectReference: {fileID: 0}
    - target: {fileID: 22467562, guid: 98e2b8a7d6de642f8ae08a3cbb957b7a, type: 2}
      propertyPath: m_SizeDelta.y
      value: 180
      objectReference: {fileID: 0}
    - target: {fileID: 22409240, guid: 98e2b8a7d6de642f8ae08a3cbb957b7a, type: 2}
      propertyPath: m_SizeDelta.y
      value: 180
      objectReference: {fileID: 0}
    - target: {fileID: 11488608, guid: 98e2b8a7d6de642f8ae08a3cbb957b7a, type: 2}
      propertyPath: miniMapBorder
      value: 
      objectReference: {fileID: 21300000, guid: e55437de61f14403ab1a94679a7396a0,
        type: 3}
    - target: {fileID: 11488608, guid: 98e2b8a7d6de642f8ae08a3cbb957b7a, type: 2}
      propertyPath: miniMapMask
      value: 
      objectReference: {fileID: 21300000, guid: e55437de61f14403ab1a94679a7396a0,
        type: 3}
    - target: {fileID: 58344563136650008, guid: 98e2b8a7d6de642f8ae08a3cbb957b7a,
        type: 2}
      propertyPath: m_Enabled
      value: 0
      objectReference: {fileID: 0}
    - target: {fileID: 61911940042942182, guid: 98e2b8a7d6de642f8ae08a3cbb957b7a,
        type: 2}
      propertyPath: m_Enabled
      value: 0
      objectReference: {fileID: 0}
    - target: {fileID: 61911940042942182, guid: 98e2b8a7d6de642f8ae08a3cbb957b7a,
        type: 2}
      propertyPath: m_Offset.y
      value: -0.37
      objectReference: {fileID: 0}
    - target: {fileID: 61911940042942182, guid: 98e2b8a7d6de642f8ae08a3cbb957b7a,
        type: 2}
      propertyPath: m_Offset.x
      value: -0.09
      objectReference: {fileID: 0}
    - target: {fileID: 61911940042942182, guid: 98e2b8a7d6de642f8ae08a3cbb957b7a,
        type: 2}
      propertyPath: m_Size.y
      value: 2.26
      objectReference: {fileID: 0}
    - target: {fileID: 61911940042942182, guid: 98e2b8a7d6de642f8ae08a3cbb957b7a,
        type: 2}
      propertyPath: m_Size.x
      value: 2.7
      objectReference: {fileID: 0}
    - target: {fileID: 60966953612936850, guid: 98e2b8a7d6de642f8ae08a3cbb957b7a,
        type: 2}
      propertyPath: m_Enabled
      value: 1
      objectReference: {fileID: 0}
    - target: {fileID: 224208162213268494, guid: 98e2b8a7d6de642f8ae08a3cbb957b7a,
        type: 2}
      propertyPath: m_LocalScale.x
      value: 57.12
      objectReference: {fileID: 0}
    - target: {fileID: 224208162213268494, guid: 98e2b8a7d6de642f8ae08a3cbb957b7a,
        type: 2}
      propertyPath: m_LocalScale.y
      value: 54.6
      objectReference: {fileID: 0}
    - target: {fileID: 224208162213268494, guid: 98e2b8a7d6de642f8ae08a3cbb957b7a,
        type: 2}
      propertyPath: m_AnchoredPosition.x
      value: -5.050003
      objectReference: {fileID: 0}
    - target: {fileID: 224208162213268494, guid: 98e2b8a7d6de642f8ae08a3cbb957b7a,
        type: 2}
      propertyPath: m_SizeDelta.x
      value: 10.099998
      objectReference: {fileID: 0}
    - target: {fileID: 22454120, guid: 98e2b8a7d6de642f8ae08a3cbb957b7a, type: 2}
      propertyPath: m_SizeDelta.y
      value: 193.4
      objectReference: {fileID: 0}
    - target: {fileID: 60966953612936850, guid: 98e2b8a7d6de642f8ae08a3cbb957b7a,
        type: 2}
      propertyPath: m_Points.m_Paths.Array.data[0].Array.data[6].x
      value: 2.113147
      objectReference: {fileID: 0}
    - target: {fileID: 60966953612936850, guid: 98e2b8a7d6de642f8ae08a3cbb957b7a,
        type: 2}
      propertyPath: m_Points.m_Paths.Array.data[0].Array.data[6].y
      value: -0.041543473
      objectReference: {fileID: 0}
    - target: {fileID: 60966953612936850, guid: 98e2b8a7d6de642f8ae08a3cbb957b7a,
        type: 2}
      propertyPath: m_Points.m_Paths.Array.data[0].Array.data[7].x
      value: 2.1550915
      objectReference: {fileID: 0}
    - target: {fileID: 60966953612936850, guid: 98e2b8a7d6de642f8ae08a3cbb957b7a,
        type: 2}
      propertyPath: m_Points.m_Paths.Array.data[0].Array.data[7].y
      value: 0.32305053
      objectReference: {fileID: 0}
    - target: {fileID: 60966953612936850, guid: 98e2b8a7d6de642f8ae08a3cbb957b7a,
        type: 2}
      propertyPath: m_Points.m_Paths.Array.data[0].Array.data[8].x
      value: 2.1671019
      objectReference: {fileID: 0}
    - target: {fileID: 60966953612936850, guid: 98e2b8a7d6de642f8ae08a3cbb957b7a,
        type: 2}
      propertyPath: m_Points.m_Paths.Array.data[0].Array.data[8].y
      value: 0.52034914
      objectReference: {fileID: 0}
    - target: {fileID: 60966953612936850, guid: 98e2b8a7d6de642f8ae08a3cbb957b7a,
        type: 2}
      propertyPath: m_Points.m_Paths.Array.data[0].Array.data[9].x
      value: 2.130064
      objectReference: {fileID: 0}
    - target: {fileID: 60966953612936850, guid: 98e2b8a7d6de642f8ae08a3cbb957b7a,
        type: 2}
      propertyPath: m_Points.m_Paths.Array.data[0].Array.data[9].y
      value: 0.74221957
      objectReference: {fileID: 0}
    - target: {fileID: 60966953612936850, guid: 98e2b8a7d6de642f8ae08a3cbb957b7a,
        type: 2}
      propertyPath: m_Points.m_Paths.Array.data[0].Array.data[10].x
      value: 1.9869761
      objectReference: {fileID: 0}
    - target: {fileID: 60966953612936850, guid: 98e2b8a7d6de642f8ae08a3cbb957b7a,
        type: 2}
      propertyPath: m_Points.m_Paths.Array.data[0].Array.data[10].y
      value: 0.87180793
      objectReference: {fileID: 0}
    - target: {fileID: 60966953612936850, guid: 98e2b8a7d6de642f8ae08a3cbb957b7a,
        type: 2}
      propertyPath: m_Points.m_Paths.Array.data[0].Array.data[11].x
      value: 1.7787294
      objectReference: {fileID: 0}
    - target: {fileID: 60966953612936850, guid: 98e2b8a7d6de642f8ae08a3cbb957b7a,
        type: 2}
      propertyPath: m_Points.m_Paths.Array.data[0].Array.data[11].y
      value: 0.8591709
      objectReference: {fileID: 0}
    - target: {fileID: 60966953612936850, guid: 98e2b8a7d6de642f8ae08a3cbb957b7a,
        type: 2}
      propertyPath: m_Points.m_Paths.Array.data[0].Array.data[12].x
      value: 1.6634917
      objectReference: {fileID: 0}
    - target: {fileID: 60966953612936850, guid: 98e2b8a7d6de642f8ae08a3cbb957b7a,
        type: 2}
      propertyPath: m_Points.m_Paths.Array.data[0].Array.data[12].y
      value: 0.6380706
      objectReference: {fileID: 0}
    - target: {fileID: 60966953612936850, guid: 98e2b8a7d6de642f8ae08a3cbb957b7a,
        type: 2}
      propertyPath: m_Points.m_Paths.Array.data[0].Array.data[13].x
      value: 1.3395134
      objectReference: {fileID: 0}
    - target: {fileID: 60966953612936850, guid: 98e2b8a7d6de642f8ae08a3cbb957b7a,
        type: 2}
      propertyPath: m_Points.m_Paths.Array.data[0].Array.data[13].y
      value: 0.5349217
      objectReference: {fileID: 0}
    - target: {fileID: 60966953612936850, guid: 98e2b8a7d6de642f8ae08a3cbb957b7a,
        type: 2}
      propertyPath: m_Points.m_Paths.Array.data[0].Array.data[14].x
      value: 1.2999994
      objectReference: {fileID: 0}
    - target: {fileID: 60966953612936850, guid: 98e2b8a7d6de642f8ae08a3cbb957b7a,
        type: 2}
      propertyPath: m_Points.m_Paths.Array.data[0].Array.data[14].y
      value: 0.7185329
      objectReference: {fileID: 0}
    - target: {fileID: 60966953612936850, guid: 98e2b8a7d6de642f8ae08a3cbb957b7a,
        type: 2}
      propertyPath: m_Points.m_Paths.Array.data[0].Array.data[15].x
      value: 1.18
      objectReference: {fileID: 0}
    - target: {fileID: 60966953612936850, guid: 98e2b8a7d6de642f8ae08a3cbb957b7a,
        type: 2}
      propertyPath: m_Points.m_Paths.Array.data[0].Array.data[15].y
      value: 0.76
      objectReference: {fileID: 0}
    - target: {fileID: 60966953612936850, guid: 98e2b8a7d6de642f8ae08a3cbb957b7a,
        type: 2}
      propertyPath: m_Points.m_Paths.Array.data[0].Array.data[16].x
      value: 1.13
      objectReference: {fileID: 0}
    - target: {fileID: 60966953612936850, guid: 98e2b8a7d6de642f8ae08a3cbb957b7a,
        type: 2}
      propertyPath: m_Points.m_Paths.Array.data[0].Array.data[16].y
      value: 0.78
      objectReference: {fileID: 0}
    - target: {fileID: 60966953612936850, guid: 98e2b8a7d6de642f8ae08a3cbb957b7a,
        type: 2}
      propertyPath: m_Points.m_Paths.Array.data[0].Array.data[17].x
      value: 0.90999997
      objectReference: {fileID: 0}
    - target: {fileID: 60966953612936850, guid: 98e2b8a7d6de642f8ae08a3cbb957b7a,
        type: 2}
      propertyPath: m_Points.m_Paths.Array.data[0].Array.data[17].y
      value: 0.83
      objectReference: {fileID: 0}
    - target: {fileID: 60966953612936850, guid: 98e2b8a7d6de642f8ae08a3cbb957b7a,
        type: 2}
      propertyPath: m_Points.m_Paths.Array.data[0].Array.data[18].x
      value: 0.74
      objectReference: {fileID: 0}
    - target: {fileID: 60966953612936850, guid: 98e2b8a7d6de642f8ae08a3cbb957b7a,
        type: 2}
      propertyPath: m_Points.m_Paths.Array.data[0].Array.data[18].y
      value: 0.95
      objectReference: {fileID: 0}
    - target: {fileID: 60966953612936850, guid: 98e2b8a7d6de642f8ae08a3cbb957b7a,
        type: 2}
      propertyPath: m_Points.m_Paths.Array.data[0].Array.data[19].x
      value: 0.65
      objectReference: {fileID: 0}
    - target: {fileID: 60966953612936850, guid: 98e2b8a7d6de642f8ae08a3cbb957b7a,
        type: 2}
      propertyPath: m_Points.m_Paths.Array.data[0].Array.data[19].y
      value: 0.97999996
      objectReference: {fileID: 0}
    - target: {fileID: 60966953612936850, guid: 98e2b8a7d6de642f8ae08a3cbb957b7a,
        type: 2}
      propertyPath: m_Points.m_Paths.Array.data[0].Array.data[20].x
      value: 0.32999998
      objectReference: {fileID: 0}
    - target: {fileID: 60966953612936850, guid: 98e2b8a7d6de642f8ae08a3cbb957b7a,
        type: 2}
      propertyPath: m_Points.m_Paths.Array.data[0].Array.data[20].y
      value: 0.98999995
      objectReference: {fileID: 0}
    - target: {fileID: 60966953612936850, guid: 98e2b8a7d6de642f8ae08a3cbb957b7a,
        type: 2}
      propertyPath: m_Points.m_Paths.Array.data[0].Array.data[21].x
      value: 0.25
      objectReference: {fileID: 0}
    - target: {fileID: 60966953612936850, guid: 98e2b8a7d6de642f8ae08a3cbb957b7a,
        type: 2}
      propertyPath: m_Points.m_Paths.Array.data[0].Array.data[21].y
      value: 1.01
      objectReference: {fileID: 0}
    - target: {fileID: 60966953612936850, guid: 98e2b8a7d6de642f8ae08a3cbb957b7a,
        type: 2}
      propertyPath: m_Points.m_Paths.Array.data[0].Array.data[22].x
      value: -0.02
      objectReference: {fileID: 0}
    - target: {fileID: 60966953612936850, guid: 98e2b8a7d6de642f8ae08a3cbb957b7a,
        type: 2}
      propertyPath: m_Points.m_Paths.Array.data[0].Array.data[23].x
      value: -0.12
      objectReference: {fileID: 0}
    - target: {fileID: 60966953612936850, guid: 98e2b8a7d6de642f8ae08a3cbb957b7a,
        type: 2}
      propertyPath: m_Points.m_Paths.Array.data[0].Array.data[23].y
      value: 0.97999996
      objectReference: {fileID: 0}
    - target: {fileID: 60966953612936850, guid: 98e2b8a7d6de642f8ae08a3cbb957b7a,
        type: 2}
      propertyPath: m_Points.m_Paths.Array.data[0].Array.data[24].x
      value: -0.25
      objectReference: {fileID: 0}
    - target: {fileID: 60966953612936850, guid: 98e2b8a7d6de642f8ae08a3cbb957b7a,
        type: 2}
      propertyPath: m_Points.m_Paths.Array.data[0].Array.data[24].y
      value: 0.93
      objectReference: {fileID: 0}
    - target: {fileID: 60966953612936850, guid: 98e2b8a7d6de642f8ae08a3cbb957b7a,
        type: 2}
      propertyPath: m_Points.m_Paths.Array.data[0].Array.data[25].x
      value: -0.44
      objectReference: {fileID: 0}
    - target: {fileID: 60966953612936850, guid: 98e2b8a7d6de642f8ae08a3cbb957b7a,
        type: 2}
      propertyPath: m_Points.m_Paths.Array.data[0].Array.data[25].y
      value: 0.88
      objectReference: {fileID: 0}
    - target: {fileID: 60966953612936850, guid: 98e2b8a7d6de642f8ae08a3cbb957b7a,
        type: 2}
      propertyPath: m_Points.m_Paths.Array.data[0].Array.data[26].x
      value: -0.53999996
      objectReference: {fileID: 0}
    - target: {fileID: 60966953612936850, guid: 98e2b8a7d6de642f8ae08a3cbb957b7a,
        type: 2}
      propertyPath: m_Points.m_Paths.Array.data[0].Array.data[27].x
      value: -0.7
      objectReference: {fileID: 0}
    - target: {fileID: 60966953612936850, guid: 98e2b8a7d6de642f8ae08a3cbb957b7a,
        type: 2}
      propertyPath: m_Points.m_Paths.Array.data[0].Array.data[27].y
      value: 0.93
      objectReference: {fileID: 0}
    - target: {fileID: 60966953612936850, guid: 98e2b8a7d6de642f8ae08a3cbb957b7a,
        type: 2}
      propertyPath: m_Points.m_Paths.Array.data[0].Array.data[28].x
      value: -1.0799999
      objectReference: {fileID: 0}
    - target: {fileID: 60966953612936850, guid: 98e2b8a7d6de642f8ae08a3cbb957b7a,
        type: 2}
      propertyPath: m_Points.m_Paths.Array.data[0].Array.data[29].x
      value: -1.28
      objectReference: {fileID: 0}
    - target: {fileID: 60966953612936850, guid: 98e2b8a7d6de642f8ae08a3cbb957b7a,
        type: 2}
      propertyPath: m_Points.m_Paths.Array.data[0].Array.data[29].y
      value: 0.97999996
      objectReference: {fileID: 0}
    - target: {fileID: 60966953612936850, guid: 98e2b8a7d6de642f8ae08a3cbb957b7a,
        type: 2}
      propertyPath: m_Points.m_Paths.Array.data[0].Array.data[30].x
      value: -1.48
      objectReference: {fileID: 0}
    - target: {fileID: 60966953612936850, guid: 98e2b8a7d6de642f8ae08a3cbb957b7a,
        type: 2}
      propertyPath: m_Points.m_Paths.Array.data[0].Array.data[31].x
      value: -1.63
      objectReference: {fileID: 0}
    - target: {fileID: 60966953612936850, guid: 98e2b8a7d6de642f8ae08a3cbb957b7a,
        type: 2}
      propertyPath: m_Points.m_Paths.Array.data[0].Array.data[31].y
      value: 0.84999996
      objectReference: {fileID: 0}
    - target: {fileID: 60966953612936850, guid: 98e2b8a7d6de642f8ae08a3cbb957b7a,
        type: 2}
      propertyPath: m_Points.m_Paths.Array.data[0].Array.data[32].x
      value: -1.73
      objectReference: {fileID: 0}
    - target: {fileID: 60966953612936850, guid: 98e2b8a7d6de642f8ae08a3cbb957b7a,
        type: 2}
      propertyPath: m_Points.m_Paths.Array.data[0].Array.data[32].y
      value: 0.64
      objectReference: {fileID: 0}
    - target: {fileID: 60966953612936850, guid: 98e2b8a7d6de642f8ae08a3cbb957b7a,
        type: 2}
      propertyPath: m_Points.m_Paths.Array.data[0].Array.data[33].x
      value: -1.92
      objectReference: {fileID: 0}
    - target: {fileID: 60966953612936850, guid: 98e2b8a7d6de642f8ae08a3cbb957b7a,
        type: 2}
      propertyPath: m_Points.m_Paths.Array.data[0].Array.data[33].y
      value: 0.42999998
      objectReference: {fileID: 0}
    - target: {fileID: 60966953612936850, guid: 98e2b8a7d6de642f8ae08a3cbb957b7a,
        type: 2}
      propertyPath: m_Points.m_Paths.Array.data[0].Array.data[34].x
      value: -1.93
      objectReference: {fileID: 0}
    - target: {fileID: 60966953612936850, guid: 98e2b8a7d6de642f8ae08a3cbb957b7a,
        type: 2}
      propertyPath: m_Points.m_Paths.Array.data[0].Array.data[34].y
      value: 0.39
      objectReference: {fileID: 0}
    - target: {fileID: 60966953612936850, guid: 98e2b8a7d6de642f8ae08a3cbb957b7a,
        type: 2}
      propertyPath: m_Points.m_Paths.Array.data[0].Array.data[35].y
      value: 0.01
      objectReference: {fileID: 0}
    - target: {fileID: 60966953612936850, guid: 98e2b8a7d6de642f8ae08a3cbb957b7a,
        type: 2}
      propertyPath: m_Points.m_Paths.Array.data[0].Array.data[36].x
      value: -1.9
      objectReference: {fileID: 0}
    - target: {fileID: 60966953612936850, guid: 98e2b8a7d6de642f8ae08a3cbb957b7a,
        type: 2}
      propertyPath: m_Points.m_Paths.Array.data[0].Array.data[36].y
      value: -0.16
      objectReference: {fileID: 0}
    - target: {fileID: 60966953612936850, guid: 98e2b8a7d6de642f8ae08a3cbb957b7a,
        type: 2}
      propertyPath: m_Points.m_Paths.Array.data[0].Array.data[37].x
      value: -1.7217541
      objectReference: {fileID: 0}
    - target: {fileID: 60966953612936850, guid: 98e2b8a7d6de642f8ae08a3cbb957b7a,
        type: 2}
      propertyPath: m_Points.m_Paths.Array.data[0].Array.data[37].y
      value: -0.18127237
      objectReference: {fileID: 0}
    - target: {fileID: 60966953612936850, guid: 98e2b8a7d6de642f8ae08a3cbb957b7a,
        type: 2}
      propertyPath: m_Points.m_Paths.Array.data[0].Array.data[38].x
      value: -1.5296216
      objectReference: {fileID: 0}
    - target: {fileID: 60966953612936850, guid: 98e2b8a7d6de642f8ae08a3cbb957b7a,
        type: 2}
      propertyPath: m_Points.m_Paths.Array.data[0].Array.data[38].y
      value: -0.22127339
      objectReference: {fileID: 0}
    - target: {fileID: 60966953612936850, guid: 98e2b8a7d6de642f8ae08a3cbb957b7a,
        type: 2}
      propertyPath: m_Points.m_Paths.Array.data[0].Array.data[39].x
      value: -1.3547554
      objectReference: {fileID: 0}
    - target: {fileID: 60966953612936850, guid: 98e2b8a7d6de642f8ae08a3cbb957b7a,
        type: 2}
      propertyPath: m_Points.m_Paths.Array.data[0].Array.data[39].y
      value: -0.35762635
      objectReference: {fileID: 0}
    - target: {fileID: 60966953612936850, guid: 98e2b8a7d6de642f8ae08a3cbb957b7a,
        type: 2}
      propertyPath: m_Points.m_Paths.Array.data[0].Array.data[40].x
      value: -1.22689
      objectReference: {fileID: 0}
    - target: {fileID: 60966953612936850, guid: 98e2b8a7d6de642f8ae08a3cbb957b7a,
        type: 2}
      propertyPath: m_Points.m_Paths.Array.data[0].Array.data[40].y
      value: -0.49768302
      objectReference: {fileID: 0}
    - target: {fileID: 60966953612936850, guid: 98e2b8a7d6de642f8ae08a3cbb957b7a,
        type: 2}
      propertyPath: m_Points.m_Paths.Array.data[0].Array.data[41].x
      value: -1.18
      objectReference: {fileID: 0}
    - target: {fileID: 60966953612936850, guid: 98e2b8a7d6de642f8ae08a3cbb957b7a,
        type: 2}
      propertyPath: m_Points.m_Paths.Array.data[0].Array.data[41].y
      value: -0.69
      objectReference: {fileID: 0}
    - target: {fileID: 60966953612936850, guid: 98e2b8a7d6de642f8ae08a3cbb957b7a,
        type: 2}
      propertyPath: m_Points.m_Paths.Array.data[0].Array.data[42].x
      value: -1.09
      objectReference: {fileID: 0}
    - target: {fileID: 60966953612936850, guid: 98e2b8a7d6de642f8ae08a3cbb957b7a,
        type: 2}
      propertyPath: m_Points.m_Paths.Array.data[0].Array.data[42].y
      value: -0.71
      objectReference: {fileID: 0}
    - target: {fileID: 60966953612936850, guid: 98e2b8a7d6de642f8ae08a3cbb957b7a,
        type: 2}
      propertyPath: m_Points.m_Paths.Array.data[0].Array.data[43].x
      value: -0.92086464
      objectReference: {fileID: 0}
    - target: {fileID: 60966953612936850, guid: 98e2b8a7d6de642f8ae08a3cbb957b7a,
        type: 2}
      propertyPath: m_Points.m_Paths.Array.data[0].Array.data[43].y
      value: -0.5712745
      objectReference: {fileID: 0}
    - target: {fileID: 60966953612936850, guid: 98e2b8a7d6de642f8ae08a3cbb957b7a,
        type: 2}
      propertyPath: m_Points.m_Paths.Array.data[0].Array.data[44].x
      value: -0.63475704
      objectReference: {fileID: 0}
    - target: {fileID: 60966953612936850, guid: 98e2b8a7d6de642f8ae08a3cbb957b7a,
        type: 2}
      propertyPath: m_Points.m_Paths.Array.data[0].Array.data[44].y
      value: -0.6340344
      objectReference: {fileID: 0}
    - target: {fileID: 60966953612936850, guid: 98e2b8a7d6de642f8ae08a3cbb957b7a,
        type: 2}
      propertyPath: m_Points.m_Paths.Array.data[0].Array.data[45].x
      value: -0.44475645
      objectReference: {fileID: 0}
    - target: {fileID: 60966953612936850, guid: 98e2b8a7d6de642f8ae08a3cbb957b7a,
        type: 2}
      propertyPath: m_Points.m_Paths.Array.data[0].Array.data[45].y
      value: -0.7012736
      objectReference: {fileID: 0}
    - target: {fileID: 60966953612936850, guid: 98e2b8a7d6de642f8ae08a3cbb957b7a,
        type: 2}
      propertyPath: m_Points.m_Paths.Array.data[0].Array.data[46].x
      value: -0.32
      objectReference: {fileID: 0}
    - target: {fileID: 60966953612936850, guid: 98e2b8a7d6de642f8ae08a3cbb957b7a,
        type: 2}
      propertyPath: m_Points.m_Paths.Array.data[0].Array.data[46].y
      value: -0.91999996
      objectReference: {fileID: 0}
    - target: {fileID: 60966953612936850, guid: 98e2b8a7d6de642f8ae08a3cbb957b7a,
        type: 2}
      propertyPath: m_Points.m_Paths.Array.data[0].Array.data[47].x
      value: -0.25
      objectReference: {fileID: 0}
    - target: {fileID: 60966953612936850, guid: 98e2b8a7d6de642f8ae08a3cbb957b7a,
        type: 2}
      propertyPath: m_Points.m_Paths.Array.data[0].Array.data[47].y
      value: -0.96
      objectReference: {fileID: 0}
    - target: {fileID: 60966953612936850, guid: 98e2b8a7d6de642f8ae08a3cbb957b7a,
        type: 2}
      propertyPath: m_Points.m_Paths.Array.data[0].Array.data[48].x
      value: 0.38
      objectReference: {fileID: 0}
    - target: {fileID: 60966953612936850, guid: 98e2b8a7d6de642f8ae08a3cbb957b7a,
        type: 2}
      propertyPath: m_Points.m_Paths.Array.data[0].Array.data[48].y
      value: -0.96
      objectReference: {fileID: 0}
    - target: {fileID: 60966953612936850, guid: 98e2b8a7d6de642f8ae08a3cbb957b7a,
        type: 2}
      propertyPath: m_Points.m_Paths.Array.data[0].Array.data[49].x
      value: 0.59999996
      objectReference: {fileID: 0}
    - target: {fileID: 60966953612936850, guid: 98e2b8a7d6de642f8ae08a3cbb957b7a,
        type: 2}
      propertyPath: m_Points.m_Paths.Array.data[0].Array.data[50].x
      value: 0.71999997
      objectReference: {fileID: 0}
    - target: {fileID: 60966953612936850, guid: 98e2b8a7d6de642f8ae08a3cbb957b7a,
        type: 2}
      propertyPath: m_Points.m_Paths.Array.data[0].Array.data[50].y
      value: -0.89
      objectReference: {fileID: 0}
    - target: {fileID: 60966953612936850, guid: 98e2b8a7d6de642f8ae08a3cbb957b7a,
        type: 2}
      propertyPath: m_Points.m_Paths.Array.data[0].Array.data[51].x
      value: 0.94
      objectReference: {fileID: 0}
    - target: {fileID: 60966953612936850, guid: 98e2b8a7d6de642f8ae08a3cbb957b7a,
        type: 2}
      propertyPath: m_Points.m_Paths.Array.data[0].Array.data[51].y
      value: -0.63
      objectReference: {fileID: 0}
    - target: {fileID: 60966953612936850, guid: 98e2b8a7d6de642f8ae08a3cbb957b7a,
        type: 2}
      propertyPath: m_Points.m_Paths.Array.data[0].Array.data[52].x
      value: 0.94
      objectReference: {fileID: 0}
    - target: {fileID: 60966953612936850, guid: 98e2b8a7d6de642f8ae08a3cbb957b7a,
        type: 2}
      propertyPath: m_Points.m_Paths.Array.data[0].Array.data[52].y
      value: -0.63
      objectReference: {fileID: 0}
    - target: {fileID: 60966953612936850, guid: 98e2b8a7d6de642f8ae08a3cbb957b7a,
        type: 2}
      propertyPath: m_Points.m_Paths.Array.data[0].Array.data[53].x
      value: 0.94
      objectReference: {fileID: 0}
    - target: {fileID: 60966953612936850, guid: 98e2b8a7d6de642f8ae08a3cbb957b7a,
        type: 2}
      propertyPath: m_Points.m_Paths.Array.data[0].Array.data[53].y
      value: -0.63
      objectReference: {fileID: 0}
    - target: {fileID: 11493498, guid: 98e2b8a7d6de642f8ae08a3cbb957b7a, type: 2}
      propertyPath: m_ShowMaskGraphic
      value: 1
      objectReference: {fileID: 0}
    - target: {fileID: 11480190, guid: 98e2b8a7d6de642f8ae08a3cbb957b7a, type: 2}
      propertyPath: m_Enabled
      value: 1
      objectReference: {fileID: 0}
    - target: {fileID: 11480190, guid: 98e2b8a7d6de642f8ae08a3cbb957b7a, type: 2}
      propertyPath: m_Sprite
      value: 
      objectReference: {fileID: 21300000, guid: c12930c043cf541e18d1b05db83e2be0,
        type: 3}
    - target: {fileID: 11493498, guid: 98e2b8a7d6de642f8ae08a3cbb957b7a, type: 2}
      propertyPath: m_Enabled
      value: 1
      objectReference: {fileID: 0}
    - target: {fileID: 11488608, guid: 98e2b8a7d6de642f8ae08a3cbb957b7a, type: 2}
      propertyPath: showBackground
      value: 1
      objectReference: {fileID: 0}
    - target: {fileID: 11421586, guid: 98e2b8a7d6de642f8ae08a3cbb957b7a, type: 2}
      propertyPath: m_Enabled
      value: 0
      objectReference: {fileID: 0}
    - target: {fileID: 224208162213268494, guid: 98e2b8a7d6de642f8ae08a3cbb957b7a,
        type: 2}
      propertyPath: m_AnchoredPosition.y
      value: 1.7750015
      objectReference: {fileID: 0}
    - target: {fileID: 224208162213268494, guid: 98e2b8a7d6de642f8ae08a3cbb957b7a,
        type: 2}
      propertyPath: m_SizeDelta.y
      value: 3.55
      objectReference: {fileID: 0}
    - target: {fileID: 60966953612936850, guid: 98e2b8a7d6de642f8ae08a3cbb957b7a,
        type: 2}
      propertyPath: m_Points.m_Paths.Array.data[0].Array.data[49].y
      value: -0.94
      objectReference: {fileID: 0}
    m_RemovedComponents: []
  m_SourcePrefab: {fileID: 100100000, guid: 98e2b8a7d6de642f8ae08a3cbb957b7a, type: 2}
  m_RootGameObject: {fileID: 1344477739}
  m_IsPrefabAsset: 0
--- !u!84 &1537455420
RenderTexture:
  m_ObjectHideFlags: 0
  m_CorrespondingSourceObject: {fileID: 0}
  m_PrefabInternal: {fileID: 0}
  m_Name: 
  m_ImageContentsHash:
    serializedVersion: 2
    Hash: 00000000000000000000000000000000
  m_ForcedFallbackFormat: 4
  m_DownscaleFallback: 0
  m_Width: 286
  m_Height: 180
  m_AntiAliasing: 1
  m_DepthFormat: 2
  m_ColorFormat: 0
  m_MipMap: 0
  m_GenerateMips: 1
  m_SRGB: 0
  m_UseDynamicScale: 0
  m_BindMS: 0
  m_TextureSettings:
    serializedVersion: 2
    m_FilterMode: 1
    m_Aniso: 0
    m_MipBias: 0
    m_WrapU: 1
    m_WrapV: 1
    m_WrapW: 1
  m_Dimension: 2
  m_VolumeDepth: 1
--- !u!1 &1637477682
GameObject:
  m_ObjectHideFlags: 0
  m_CorrespondingSourceObject: {fileID: 120388, guid: 98e2b8a7d6de642f8ae08a3cbb957b7a,
    type: 2}
  m_PrefabInternal: {fileID: 1400175052}
  serializedVersion: 6
  m_Component:
  - component: {fileID: 1637477683}
  - component: {fileID: 1637477685}
  - component: {fileID: 1637477684}
  m_Layer: 5
  m_Name: MiniMapPanel
  m_TagString: Untagged
  m_Icon: {fileID: 0}
  m_NavMeshLayer: 0
  m_StaticEditorFlags: 0
  m_IsActive: 1
--- !u!224 &1637477683
RectTransform:
  m_ObjectHideFlags: 0
  m_CorrespondingSourceObject: {fileID: 22409240, guid: 98e2b8a7d6de642f8ae08a3cbb957b7a,
    type: 2}
  m_PrefabInternal: {fileID: 1400175052}
  m_GameObject: {fileID: 1637477682}
  m_LocalRotation: {x: 0, y: 0, z: 0, w: 1}
  m_LocalPosition: {x: 0, y: 0, z: 0}
  m_LocalScale: {x: 1, y: 1, z: 1}
  m_Children: []
  m_Father: {fileID: 698569065}
  m_RootOrder: 0
  m_LocalEulerAnglesHint: {x: 0, y: 0, z: 0}
  m_AnchorMin: {x: 0.5, y: 0.5}
  m_AnchorMax: {x: 0.5, y: 0.5}
  m_AnchoredPosition: {x: -1, y: 1}
  m_SizeDelta: {x: 286, y: 180}
  m_Pivot: {x: 0.5, y: 0.5}
--- !u!114 &1637477684
MonoBehaviour:
  m_ObjectHideFlags: 0
  m_CorrespondingSourceObject: {fileID: 11421586, guid: 98e2b8a7d6de642f8ae08a3cbb957b7a,
    type: 2}
  m_PrefabInternal: {fileID: 1400175052}
  m_GameObject: {fileID: 1637477682}
  m_Enabled: 0
  m_EditorHideFlags: 0
  m_Script: {fileID: -765806418, guid: f5f67c52d1564df4a8936ccd202a3bd8, type: 3}
  m_Name: 
  m_EditorClassIdentifier: 
  m_Material: {fileID: 2100000, guid: 65bbe9e0008384c5997f0cf300c3cb81, type: 2}
  m_Color: {r: 1, g: 1, b: 1, a: 1}
  m_RaycastTarget: 0
  m_OnCullStateChanged:
    m_PersistentCalls:
      m_Calls: []
    m_TypeName: UnityEngine.UI.MaskableGraphic+CullStateChangedEvent, UnityEngine.UI,
      Version=1.0.0.0, Culture=neutral, PublicKeyToken=null
  m_Sprite: {fileID: 0}
  m_Type: 1
  m_PreserveAspect: 0
  m_FillCenter: 1
  m_FillMethod: 4
  m_FillAmount: 1
  m_FillClockwise: 1
  m_FillOrigin: 0
--- !u!222 &1637477685
CanvasRenderer:
  m_ObjectHideFlags: 0
  m_CorrespondingSourceObject: {fileID: 22218860, guid: 98e2b8a7d6de642f8ae08a3cbb957b7a,
    type: 2}
  m_PrefabInternal: {fileID: 1400175052}
  m_GameObject: {fileID: 1637477682}
  m_CullTransparentMesh: 0
--- !u!1 &1644070545
GameObject:
  m_ObjectHideFlags: 0
  m_CorrespondingSourceObject: {fileID: 111892, guid: 98e2b8a7d6de642f8ae08a3cbb957b7a,
    type: 2}
  m_PrefabInternal: {fileID: 1400175052}
  serializedVersion: 6
  m_Component:
  - component: {fileID: 1644070546}
  - component: {fileID: 1644070548}
  - component: {fileID: 1644070547}
  m_Layer: 5
  m_Name: Border
  m_TagString: Untagged
  m_Icon: {fileID: 0}
  m_NavMeshLayer: 0
  m_StaticEditorFlags: 0
  m_IsActive: 1
--- !u!224 &1644070546
RectTransform:
  m_ObjectHideFlags: 0
  m_CorrespondingSourceObject: {fileID: 22454120, guid: 98e2b8a7d6de642f8ae08a3cbb957b7a,
    type: 2}
  m_PrefabInternal: {fileID: 1400175052}
  m_GameObject: {fileID: 1644070545}
  m_LocalRotation: {x: 0, y: 0, z: 0, w: 1}
  m_LocalPosition: {x: 0, y: 0, z: 0}
  m_LocalScale: {x: 0.7, y: 0.7, z: 1}
  m_Children:
  - {fileID: 780914579}
  - {fileID: 698569065}
  m_Father: {fileID: 1344477744}
  m_RootOrder: 1
  m_LocalEulerAnglesHint: {x: 0, y: 0, z: 0}
  m_AnchorMin: {x: 0, y: 0}
  m_AnchorMax: {x: 0, y: 0}
  m_AnchoredPosition: {x: 799, y: 432.3}
  m_SizeDelta: {x: 300, y: 193.4}
  m_Pivot: {x: 0.5, y: 0.5}
--- !u!114 &1644070547
MonoBehaviour:
  m_ObjectHideFlags: 0
  m_CorrespondingSourceObject: {fileID: 11485126, guid: 98e2b8a7d6de642f8ae08a3cbb957b7a,
    type: 2}
  m_PrefabInternal: {fileID: 1400175052}
  m_GameObject: {fileID: 1644070545}
  m_Enabled: 1
  m_EditorHideFlags: 0
  m_Script: {fileID: -765806418, guid: f5f67c52d1564df4a8936ccd202a3bd8, type: 3}
  m_Name: 
  m_EditorClassIdentifier: 
  m_Material: {fileID: 0}
  m_Color: {r: 1, g: 1, b: 1, a: 1}
  m_RaycastTarget: 0
  m_OnCullStateChanged:
    m_PersistentCalls:
      m_Calls: []
    m_TypeName: UnityEngine.UI.MaskableGraphic+CullStateChangedEvent, UnityEngine.UI,
      Version=1.0.0.0, Culture=neutral, PublicKeyToken=null
  m_Sprite: {fileID: 21300000, guid: f8f86fa9d0bc642549877a2c8f5cecb8, type: 3}
  m_Type: 1
  m_PreserveAspect: 0
  m_FillCenter: 1
  m_FillMethod: 4
  m_FillAmount: 1
  m_FillClockwise: 1
  m_FillOrigin: 0
--- !u!222 &1644070548
CanvasRenderer:
  m_ObjectHideFlags: 0
  m_CorrespondingSourceObject: {fileID: 22298322, guid: 98e2b8a7d6de642f8ae08a3cbb957b7a,
    type: 2}
  m_PrefabInternal: {fileID: 1400175052}
  m_GameObject: {fileID: 1644070545}
  m_CullTransparentMesh: 0
--- !u!1 &1686128681
GameObject:
  m_ObjectHideFlags: 0
  m_CorrespondingSourceObject: {fileID: 0}
  m_PrefabInternal: {fileID: 0}
  serializedVersion: 6
  m_Component:
  - component: {fileID: 1686128686}
  - component: {fileID: 1686128685}
  - component: {fileID: 1686128684}
  - component: {fileID: 1686128683}
  - component: {fileID: 1686128682}
  m_Layer: 0
  m_Name: Enemy (1)
  m_TagString: Untagged
  m_Icon: {fileID: 0}
  m_NavMeshLayer: 0
  m_StaticEditorFlags: 0
  m_IsActive: 1
--- !u!114 &1686128682
MonoBehaviour:
  m_ObjectHideFlags: 0
  m_CorrespondingSourceObject: {fileID: 0}
  m_PrefabInternal: {fileID: 0}
  m_GameObject: {fileID: 1686128681}
  m_Enabled: 1
  m_EditorHideFlags: 0
  m_Script: {fileID: 11500000, guid: dbf9db670c1df4bb2843b82560ce5409, type: 3}
  m_Name: 
  m_EditorClassIdentifier: 
  icon: {fileID: 21300000, guid: 5b47ca1209db34047b14f65d2db913e4, type: 3}
  size: {x: 20, y: 20}
  rotateWithObject: 1
  upAxis: {x: 0, y: 1, z: 0}
  initialIconRotation: 0
  clampIconInBorder: 1
  clampDistance: 100
--- !u!23 &1686128683
MeshRenderer:
  m_ObjectHideFlags: 0
  m_CorrespondingSourceObject: {fileID: 0}
  m_PrefabInternal: {fileID: 0}
  m_GameObject: {fileID: 1686128681}
  m_Enabled: 1
  m_CastShadows: 1
  m_ReceiveShadows: 1
  m_DynamicOccludee: 1
  m_MotionVectors: 1
  m_LightProbeUsage: 1
  m_ReflectionProbeUsage: 1
  m_RenderingLayerMask: 4294967295
  m_Materials:
  - {fileID: 2100000, guid: e75e04fc5ddc846e2aaf0a78925134c7, type: 2}
  m_StaticBatchInfo:
    firstSubMesh: 0
    subMeshCount: 0
  m_StaticBatchRoot: {fileID: 0}
  m_ProbeAnchor: {fileID: 0}
  m_LightProbeVolumeOverride: {fileID: 0}
  m_ScaleInLightmap: 1
  m_PreserveUVs: 1
  m_IgnoreNormalsForChartDetection: 0
  m_ImportantGI: 0
  m_StitchLightmapSeams: 0
  m_SelectedEditorRenderState: 3
  m_MinimumChartSize: 4
  m_AutoUVMaxDistance: 0.5
  m_AutoUVMaxAngle: 89
  m_LightmapParameters: {fileID: 0}
  m_SortingLayerID: 0
  m_SortingLayer: 0
  m_SortingOrder: 0
--- !u!65 &1686128684
BoxCollider:
  m_ObjectHideFlags: 0
  m_CorrespondingSourceObject: {fileID: 0}
  m_PrefabInternal: {fileID: 0}
  m_GameObject: {fileID: 1686128681}
  m_Material: {fileID: 0}
  m_IsTrigger: 0
  m_Enabled: 1
  serializedVersion: 2
  m_Size: {x: 1, y: 1, z: 1}
  m_Center: {x: 0, y: 0, z: 0}
--- !u!33 &1686128685
MeshFilter:
  m_ObjectHideFlags: 0
  m_CorrespondingSourceObject: {fileID: 0}
  m_PrefabInternal: {fileID: 0}
  m_GameObject: {fileID: 1686128681}
  m_Mesh: {fileID: 10202, guid: 0000000000000000e000000000000000, type: 0}
--- !u!4 &1686128686
Transform:
  m_ObjectHideFlags: 0
  m_CorrespondingSourceObject: {fileID: 0}
  m_PrefabInternal: {fileID: 0}
  m_GameObject: {fileID: 1686128681}
  m_LocalRotation: {x: 0, y: -0.7071068, z: 0, w: 0.7071068}
  m_LocalPosition: {x: 21.5, y: 8.5, z: 6.8}
  m_LocalScale: {x: 1.5474236, y: 1.5474235, z: 1.5474235}
  m_Children: []
  m_Father: {fileID: 0}
  m_RootOrder: 3
  m_LocalEulerAnglesHint: {x: 0, y: -90, z: 0}
