%YAML 1.1
%TAG !u! tag:unity3d.com,2011:
--- !u!1 &5634377672014305671
GameObject:
  m_ObjectHideFlags: 0
  m_CorrespondingSourceObject: {fileID: 0}
  m_PrefabInstance: {fileID: 0}
  m_PrefabAsset: {fileID: 0}
  serializedVersion: 6
  m_Component:
  - component: {fileID: 5634377672014305666}
  - component: {fileID: 5634377672014305669}
  - component: {fileID: 5634377672014305668}
  m_Layer: 0
  m_Name: EnemySpawner
  m_TagString: Untagged
  m_Icon: {fileID: 0}
  m_NavMeshLayer: 0
  m_StaticEditorFlags: 0
  m_IsActive: 1
--- !u!4 &5634377672014305666
Transform:
  m_ObjectHideFlags: 0
  m_CorrespondingSourceObject: {fileID: 0}
  m_PrefabInstance: {fileID: 0}
  m_PrefabAsset: {fileID: 0}
  m_GameObject: {fileID: 5634377672014305671}
  m_LocalRotation: {x: -0, y: -0, z: -0, w: 1}
  m_LocalPosition: {x: 1292, y: 0.65, z: -1116}
  m_LocalScale: {x: 1, y: 1, z: 1}
  m_Children: []
  m_Father: {fileID: 0}
  m_RootOrder: 0
  m_LocalEulerAnglesHint: {x: 0, y: 0, z: 0}
--- !u!65 &5634377672014305669
BoxCollider:
  m_ObjectHideFlags: 0
  m_CorrespondingSourceObject: {fileID: 0}
  m_PrefabInstance: {fileID: 0}
  m_PrefabAsset: {fileID: 0}
  m_GameObject: {fileID: 5634377672014305671}
  m_Material: {fileID: 0}
  m_IsTrigger: 1
  m_Enabled: 0
  serializedVersion: 2
  m_Size: {x: 373.59265, y: 1, z: 379.51575}
  m_Center: {x: -4.871643, y: 0, z: 7.9854126}
--- !u!114 &5634377672014305668
MonoBehaviour:
  m_ObjectHideFlags: 0
  m_CorrespondingSourceObject: {fileID: 0}
  m_PrefabInstance: {fileID: 0}
  m_PrefabAsset: {fileID: 0}
  m_GameObject: {fileID: 5634377672014305671}
  m_Enabled: 1
  m_EditorHideFlags: 0
  m_Script: {fileID: 11500000, guid: 0932eca88d04b7a41b4e1bcd85bd7d8b, type: 3}
  m_Name: 
  m_EditorClassIdentifier: 
  Enemies:
  - Name: Goblin1
    Count: 25
    Diameter: 0.875
  - Name: MyShiny
    Count: 50
    Diameter: 1.125
  - Name: wolf
    Count: 25
    Diameter: 2
  Bosses:
  - Mother Dragon
  - Tutorial Wolf
