%YAML 1.1
%TAG !u! tag:unity3d.com,2011:
--- !u!1045 &1
EditorBuildSettings:
  m_ObjectHideFlags: 0
  serializedVersion: 2
  m_Scenes:
  - enabled: 1
    path: Assets/Scenes/Main Menu.unity
    guid: 15a972f167ef51144bacfc62e58ddc6e
  - enabled: 1
    path: Assets/Scenes/TestScene.unity
    guid: f4093fae5c645450b992f22e8e7f9a30
  - enabled: 0
    path: Assets/Scenes/EarlyEnvironment.unity
    guid: f8b231e495e05d147af61857383151d8
  m_configObjects: {}
